{
  "implemented": true,
  "name": "Heatmor",
  "nationalPokedexNumber": 631,
  "primaryType": "fire",
  "abilities": [
    "gluttony",
    "flashfire",
    "h:whitesmoke"
  ],
  "drops": {
    "amount": 3,
    "entries": [
      {
        "item": "cobblemon:flame_orb",
        "percentage": 5.0
      },
      {
        "item": "minecraft:blaze_powder",
        "percentage": 5.0
      },
      {
        "item": "cobblemon:rawst_berry",
        "percentage": 5.0
      }
    ]
  },
  "baseStats": {
    "hp": 85,
    "attack": 97,
    "defence": 66,
    "special_attack": 105,
    "special_defence": 66,
    "speed": 65
  },
  "catchRate": 90,
  "maleRatio": 0.5,
  "shoulderMountable": false,
  "baseExperienceYield": 169,
  "experienceGroup": "medium_fast",
  "eggCycles": 20,
  "eggGroups": [
    "field"
  ],
  "behaviour": {
    "resting": {
      "canSleep": true,
      "willSleepOnBed": false,
      "depth": "normal",
      "light": "0-4"
    }
  },
  "moves": [
    "1:lick",
    "1:tackle",
    "5:furyswipes",
    "6:odorsleuth",
    "10:incinerate",
    "15:bugbite",
    "20:spitup",
    "20:stockpile",
    "20:swallow",
    "25:slash",
    "26:snatch",
    "30:bind",
    "31:flameburst",
    "35:firelash",
    "40:honeclaws",
    "45:amnesia",
    "50:firespin",
    "50:flamethrower",
    "55:inferno",
    "60:flareblitz",
    "egg:belch",
    "egg:bodyslam",
    "egg:curse",
    "egg:feintattack",
    "egg:heatwave",
    "egg:nightslash",
    "egg:pursuit",
    "egg:sleeptalk",
    "egg:suckerpunch",
    "egg:tickle",
    "egg:wrap",
    "tm:aerialace",
    "tm:amnesia",
    "tm:attract",
    "tm:bodyslam",
    "tm:brutalswing",
    "tm:confide",
    "tm:cut",
    "tm:dig",
    "tm:doubleteam",
    "tm:drainpunch",
    "tm:endure",
    "tm:facade",
    "tm:fireblast",
    "tm:firepunch",
    "tm:firespin",
    "tm:flamethrower",
    "tm:flareblitz",
    "tm:fling",
    "tm:focusblast",
    "tm:frustration",
    "tm:gigadrain",
    "tm:gigaimpact",
    "tm:heatwave",
    "tm:hiddenpower",
    "tm:honeclaws",
    "tm:incinerate",
    "tm:lowkick",
    "tm:overheat",
    "tm:poweruppunch",
    "tm:protect",
    "tm:raindance",
    "tm:rest",
    "tm:return",
    "tm:rocksmash",
    "tm:rocktomb",
    "tm:round",
    "tm:secretpower",
    "tm:shadowclaw",
    "tm:sleeptalk",
    "tm:snore",
    "tm:solarbeam",
    "tm:stompingtantrum",
    "tm:substitute",
    "tm:sunnyday",
    "tm:superpower",
    "tm:swagger",
    "tm:taunt",
    "tm:thief",
    "tm:throatchop",
    "tm:thunderpunch",
    "tm:toxic",
    "tm:willowisp",
    "tutor:bind",
    "tutor:bugbite",
    "tutor:burningjealousy",
    "tutor:firepunch",
    "tutor:focuspunch",
    "tutor:gastroacid",
    "tutor:gigadrain",
    "tutor:heatwave",
    "tutor:incinerate",
    "tutor:knockoff",
    "tutor:lowkick",
    "tutor:recycle",
    "tutor:scorchingsands",
    "tutor:sleeptalk",
    "tutor:snatch",
    "tutor:snore",
    "tutor:stompingtantrum",
    "tutor:superpower",
    "tutor:throatchop",
    "tutor:thunderpunch"
  ],
  "labels": [
    "gen5"
  ],
  "pokedex": [
    "cobblemon.species.heatmor.desc"
  ],
  "evolutions": [],
  "baseScale": 1,
  "hitbox": {
    "width": 1,
    "height": 1,
    "fixed": false
  },
  "baseFriendship": 50,
  "evYield": {
    "hp": 0,
    "attack": 0,
    "defence": 0,
    "special_attack": 2,
    "special_defence": 0,
    "speed": 0
  },
  "height": 14,
  "weight": 580,
  "aspects": [],
  "cannotDynamax": false
}