{
  "implemented": true,
  "name": "Volcarona",
  "nationalPokedexNumber": 637,
  "primaryType": "bug",
  "secondaryType": "fire",
  "abilities": [
    "flamebody",
    "h:swarm"
  ],
  "drops": {
    "amount": 3,
    "entries": [
      {
        "item": "minecraft:blaze_powder",
        "percentage": 5.0
      },
      {
        "item": "cobblemon:silver_powder",
        "percentage": 5.0
      },
      {
        "item": "cobblemon:charti_berry",
        "percentage": 5.0
      }
    ]
  },
  "baseStats": {
    "hp": 85,
    "attack": 60,
    "defence": 65,
    "special_attack": 135,
    "special_defence": 105,
    "speed": 100
  },
  "catchRate": 15,
  "maleRatio": 0.5,
  "shoulderMountable": false,
  "baseExperienceYield": 275,
  "experienceGroup": "slow",
  "eggCycles": 40,
  "eggGroups": [
    "bug"
  ],
  "behaviour": {
    "moving": {
      "fly": {
        "canFly": true
      }
    }
  },
  "moves": [
    "1:absorb",
    "1:doubleedge",
    "1:ember",
    "1:fierydance",
    "1:firespin",
    "1:flamecharge",
    "1:flareblitz",
    "1:gust",
    "1:quiverdance",
    "1:stringshot",
    "1:strugglebug",
    "1:takedown",
    "1:thrash",
    "1:whirlwind",
    "18:flamewheel",
    "24:bugbite",
    "30:screech",
    "36:leechlife",
    "42:bugbuzz",
    "48:heatwave",
    "50:silverwind",
    "54:amnesia",
    "62:hurricane",
    "70:fireblast",
    "78:ragepowder",
    "tm:acrobatics",
    "tm:aerialace",
    "tm:aircutter",
    "tm:airslash",
    "tm:amnesia",
    "tm:attract",
    "tm:bodyslam",
    "tm:bugbite",
    "tm:bugbuzz",
    "tm:calmmind",
    "tm:confide",
    "tm:doubleedge",
    "tm:doubleteam",
    "tm:dualwingbeat",
    "tm:endure",
    "tm:facade",
    "tm:fireblast",
    "tm:firespin",
    "tm:flamecharge",
    "tm:flamethrower",
    "tm:flareblitz",
    "tm:fly",
    "tm:frustration",
    "tm:gigadrain",
    "tm:gigaimpact",
    "tm:heatwave",
    "tm:hiddenpower",
    "tm:hurricane",
    "tm:hyperbeam",
    "tm:incinerate",
    "tm:leechlife",
    "tm:lightscreen",
    "tm:lunge",
    "tm:mysticalfire",
    "tm:overheat",
    "tm:poisonjab",
    "tm:pounce",
    "tm:protect",
    "tm:psychic",
    "tm:raindance",
    "tm:rest",
    "tm:return",
    "tm:roost",
    "tm:round",
    "tm:safeguard",
    "tm:screech",
    "tm:secretpower",
    "tm:skittersmack",
    "tm:sleeptalk",
    "tm:snore",
    "tm:solarbeam",
    "tm:strugglebug",
    "tm:substitute",
    "tm:sunnyday",
    "tm:swagger",
    "tm:tailwind",
    "tm:takedown",
    "tm:terablast",
    "tm:toxic",
    "tm:trailblaze",
    "tm:uturn",
    "tm:wildcharge",
    "tm:willowisp",
    "tm:zenheadbutt",
    "tutor:bugbite",
    "tutor:bugbuzz",
    "tutor:defog",
    "tutor:dualwingbeat",
    "tutor:firespin",
    "tutor:gigadrain",
    "tutor:gust",
    "tutor:heatwave",
    "tutor:hyperbeam",
    "tutor:leechlife",
    "tutor:magnetrise",
    "tutor:overheat",
    "tutor:quiverdance",
    "tutor:roost",
    "tutor:signalbeam",
    "tutor:skittersmack",
    "tutor:sleeptalk",
    "tutor:snore",
    "tutor:stringshot",
    "tutor:tailwind",
    "tutor:zenheadbutt"
  ],
  "labels": [
    "gen5"
  ],
  "pokedex": [
    "cobblemon.species.volcarona.desc"
  ],
  "preEvolution": "larvesta",
  "evolutions": [],
  "baseScale": 0.9,
  "hitbox": {
    "width": 1.3,
    "height": 2.4,
    "fixed": false
  },
  "baseFriendship": 50,
  "evYield": {
    "hp": 0,
    "attack": 0,
    "defence": 0,
    "special_attack": 3,
    "special_defence": 0,
    "speed": 0
  },
  "height": 16,
  "weight": 460,
  "aspects": [],
  "cannotDynamax": false
}