{
  "textures": [
    "cobblemon:bigsparkle",
    "cobblemon:bubble",
    "cobblemon:bubble_large",
    "cobblemon:cherry_petal",
    "cobblemon:confetti",
    "cobblemon:crit",
    "cobblemon:cut",
    "cobblemon:drip",
    "cobblemon:electricity",
    "cobblemon:energyball",
    "cobblemon:fang",
    "cobblemon:fist",
    "cobblemon:foot",
    "cobblemon:goo",
    "cobblemon:hit",
    "cobblemon:impact-bug",
    "cobblemon:impact-dark",
    "cobblemon:impact-dragon",
    "cobblemon:impact-electric",
    "cobblemon:impact-fairy",
    "cobblemon:impact-fighting",
    "cobblemon:impact-fire",
    "cobblemon:impact-flying",
    "cobblemon:impact-ghost",
    "cobblemon:impact-grass",
    "cobblemon:impact-ground",
    "cobblemon:impact-ice",
    "cobblemon:impact-normal",
    "cobblemon:impact-poison",
    "cobblemon:impact-psychic",
    "cobblemon:impact-rock",
    "cobblemon:impact-steel",
    "cobblemon:impact-water",
    "cobblemon:lava_bubble",
    "cobblemon:lightbeam",
    "cobblemon:maus",
    "cobblemon:obscuringsmoke",
    "cobblemon:ooze",
    "cobblemon:orb",
    "cobblemon:pokeball_smoke",
    "cobblemon:ripple",
    "cobblemon:sand_tomb_1",
    "cobblemon:sand_tomb_2",
    "cobblemon:scratch",
    "cobblemon:shiny_lava_bubble",
    "cobblemon:slash",
    "cobblemon:sleep_zzz",
    "cobblemon:smoke",
    "cobblemon:sparkle",
    "cobblemon:speedlines",
    "cobblemon:star",
    "cobblemon:stat_up",
    "cobblemon:swipe",
    "cobblemon:tailflame",
    "cobblemon:vanilla_smoke",
    "cobblemon:waterjet",
    "cobblemon:waterjet_head",
    "cobblemon:white_bubble",
    "cobblemon:glowing_dots_cyan",
    "cobblemon:glowing_smoke_cyan",
    "cobblemon:glowing_sparkle_yellow",
    "cobblemon:afterspark",
    "cobblemon:capturesparks",
    "cobblemon:capturestar",
    "cobblemon:pop_particle",
    "cobblemon:white",
    "cobblemon:invisible",
    "cobblemon:white_aura"
  ]
}