{
  "implemented": true,
  "name": "Arctovish",
  "nationalPokedexNumber": 883,
  "primaryType": "water",
  "secondaryType": "ice",
  "abilities": [
    "waterabsorb",
    "icebody",
    "h:slushrush"
  ],
  "baseStats": {
    "hp": 90,
    "attack": 90,
    "defence": 100,
    "special_attack": 80,
    "special_defence": 90,
    "speed": 55
  },
  "behaviour": {
    "moving": {
      "swim": {
        "swimSpeed": 0.3,
        "canSwimInWater": true,
        "canBreatheUnderwater": true
      },
      "walk": {
        "walkSpeed": 0.14
      }
    },
    "resting": {
      "canSleep": true,
      "willSleepOnBed": false,
      "depth": "normal",
      "light": "0-4"
    }
  },
  "catchRate": 45,
  "maleRatio": -1,
  "shoulderMountable": false,
  "baseExperienceYield": 177,
  "experienceGroup": "slow",
  "eggCycles": 35,
  "eggGroups": [
    "undiscovered"
  ],
  "moves": [
    "1:powdersnow",
    "1:watergun",
    "7:protect",
    "14:icywind",
    "21:ancientpower",
    "28:bite",
    "35:auroraveil",
    "42:freezedry",
    "49:superfang",
    "56:crunch",
    "63:fishiousrend",
    "70:iciclecrash",
    "77:blizzard",
    "tm:avalanche",
    "tm:blizzard",
    "tm:bodyslam",
    "tm:brine",
    "tm:crunch",
    "tm:dive",
    "tm:endure",
    "tm:facade",
    "tm:gigaimpact",
    "tm:hail",
    "tm:hydropump",
    "tm:hyperbeam",
    "tm:icebeam",
    "tm:icefang",
    "tm:iciclespear",
    "tm:icywind",
    "tm:irondefense",
    "tm:ironhead",
    "tm:liquidation",
    "tm:protect",
    "tm:psychicfangs",
    "tm:raindance",
    "tm:rest",
    "tm:rockblast",
    "tm:rockslide",
    "tm:rocktomb",
    "tm:round",
    "tm:sleeptalk",
    "tm:snore",
    "tm:stoneedge",
    "tm:substitute",
    "tm:surf",
    "tm:waterfall",
    "tm:whirlpool",
    "tm:zenheadbutt",
    "tutor:meteorbeam",
    "tutor:powdersnow",
    "tutor:protect",
    "tutor:watergun"
  ],
  "labels": [
    "gen8"
  ],
  "pokedex": [
    "cobblemon.species.arctovish.desc"
  ],
  "evolutions": [],
  "baseScale": 0.8,
  "hitbox": {
    "width": 1.8,
    "height": 3,
    "fixed": false
  },
  "baseFriendship": 50,
  "evYield": {
    "hp": 0,
    "attack": 0,
    "defence": 2,
    "special_attack": 0,
    "special_defence": 0,
    "speed": 0
  },
  "height": 20,
  "weight": 1750,
  "aspects": [],
  "cannotDynamax": false
}