{
    "processors": [
        {
            "processor_type": "minecraft:rule",
            "rules": [
                {
                    "block_entity_modifier": {
                        "type": "minecraft:append_loot",
                        "loot_table": "cobblemon:ruins/common/unstable_cave_ruins"
                    },
                    "input_predicate": {
                        "block": "minecraft:clay",
                        "predicate_type": "minecraft:random_block_match",
                        "probability": 0.3
                    },
                    "location_predicate": {
                        "predicate_type": "minecraft:always_true"
                    },
                    "output_state": {
                        "Name": "minecraft:suspicious_sand"
                    }
                },
                {
                    "input_predicate": {
                        "block": "minecraft:dripstone_block",
                        "predicate_type": "minecraft:random_block_match",
                        "probability": 0.4
                    },
                    "location_predicate": {
                        "predicate_type": "minecraft:always_true"
                    },
                    "output_state": {
                        "Name": "minecraft:sand"
                    }
                },
                {
                    "input_predicate": {
                        "block": "minecraft:granite",
                        "predicate_type": "minecraft:random_block_match",
                        "probability": 0.1
                    },
                    "location_predicate": {
                        "predicate_type": "minecraft:always_true"
                    },
                    "output_state": {
                        "Name": "minecraft:skeleton_skull"
                    }
                },
                {
                    "input_predicate": {
                        "block": "minecraft:granite",
                        "predicate_type": "minecraft:random_block_match",
                        "probability": 0.2
                    },
                    "location_predicate": {
                        "predicate_type": "minecraft:always_true"
                    },
                    "output_state": {
                        "Name": "minecraft:decorated_pot"
                    }
                },
                {
                    "input_predicate": {
                        "block": "minecraft:granite",
                        "predicate_type": "minecraft:random_block_match",
                        "probability": 0.2
                    },
                    "location_predicate": {
                        "predicate_type": "minecraft:always_true"
                    },
                    "output_state": {
                        "Name": "cobblemon:relic_coin_pouch",
                        "Properties": {
                            "facing": "west",
                            "natural": "true"
                        }
                    }
                },
                {
                    "input_predicate": {
                        "block": "minecraft:granite",
                        "predicate_type": "minecraft:random_block_match",
                        "probability": 0.1
                    },
                    "location_predicate": {
                        "predicate_type": "minecraft:always_true"
                    },
                    "output_state": {
                        "Name": "minecraft:brown_candle",
                        "Properties": {
                            "candles": "4"
                        }
                    }
                },
                {
                    "input_predicate": {
                        "block": "minecraft:granite",
                        "predicate_type": "minecraft:random_block_match",
                        "probability": 0.1
                    },
                    "location_predicate": {
                        "predicate_type": "minecraft:always_true"
                    },
                    "output_state": {
                        "Name": "minecraft:brown_candle",
                        "Properties": {
                            "candles": "3"
                        }
                    }
                },
                {
                    "input_predicate": {
                        "block": "minecraft:granite",
                        "predicate_type": "minecraft:random_block_match",
                        "probability": 0.1
                    },
                    "location_predicate": {
                        "predicate_type": "minecraft:always_true"
                    },
                    "output_state": {
                        "Name": "minecraft:brown_candle",
                        "Properties": {
                            "candles": "2"
                        }
                    }
                },
                {
                    "input_predicate": {
                        "block": "minecraft:granite",
                        "predicate_type": "minecraft:random_block_match",
                        "probability": 0.1
                    },
                    "location_predicate": {
                        "predicate_type": "minecraft:always_true"
                    },
                    "output_state": {
                        "Name": "minecraft:brown_candle",
                        "Properties": {
                            "candles": "1"
                        }
                    }
                },
                {
                    "input_predicate": {
                        "block": "minecraft:granite",
                        "predicate_type": "minecraft:random_block_match",
                        "probability": 1.0
                    },
                    "location_predicate": {
                        "predicate_type": "minecraft:always_true"
                    },
                    "output_state": {
                        "Name": "minecraft:air"
                    }
                },
                {
                    "input_predicate": {
                        "block": "minecraft:clay",
                        "predicate_type": "minecraft:random_block_match",
                        "probability": 1.0
                    },
                    "location_predicate": {
                        "predicate_type": "minecraft:always_true"
                    },
                    "output_state": {
                        "Name": "minecraft:sand"
                    }
                },
                {
                    "input_predicate": {
                        "block": "minecraft:diorite",
                        "predicate_type": "minecraft:random_block_match",
                        "probability": 0.5
                    },
                    "location_predicate": {
                        "predicate_type": "minecraft:always_true"
                    },
                    "output_state": {
                        "Name": "minecraft:sand"
                    }
                },
                {
                    "input_predicate": {
                        "block": "minecraft:diorite",
                        "predicate_type": "minecraft:random_block_match",
                        "probability": 1.0
                    },
                    "location_predicate": {
                        "predicate_type": "minecraft:always_true"
                    },
                    "output_state": {
                        "Name": "minecraft:air"
                    }
                },
                {
                    "input_predicate": {
                        "block": "minecraft:sandstone",
                        "predicate_type": "minecraft:random_block_match",
                        "probability": 1.0
                    },
                    "location_predicate": {
                        "predicate_type": "minecraft:always_true"
                    },
                    "output_state": {
                        "Name": "minecraft:sand"
                    }
                },
                {
                    "input_predicate": {
                        "block": "minecraft:air",
                        "predicate_type": "minecraft:random_block_match",
                        "probability": 1.0
                    },
                    "location_predicate": {
                        "predicate_type": "minecraft:always_true"
                    },
                    "output_state": {
                        "Name": "minecraft:air"
                    }
                }
            ]
        },
        {
            "processor_type": "minecraft:rule",
            "rules": [
                {
                    "input_predicate": {
                        "block": "minecraft:skeleton_skull",
                        "predicate_type": "minecraft:random_block_match",
                        "probability": 0.07
                    },
                    "location_predicate": {
                        "predicate_type": "minecraft:always_true"
                    },
                    "output_state": {
                        "Name": "minecraft:skeleton_skull",
                        "Properties": {
                            "rotation": "1"
                        }
                    }
                },
                {
                    "input_predicate": {
                        "block": "minecraft:skeleton_skull",
                        "predicate_type": "minecraft:random_block_match",
                        "probability": 0.07
                    },
                    "location_predicate": {
                        "predicate_type": "minecraft:always_true"
                    },
                    "output_state": {
                        "Name": "minecraft:skeleton_skull",
                        "Properties": {
                            "rotation": "2"
                        }
                    }
                },
                {
                    "input_predicate": {
                        "block": "minecraft:skeleton_skull",
                        "predicate_type": "minecraft:random_block_match",
                        "probability": 0.07
                    },
                    "location_predicate": {
                        "predicate_type": "minecraft:always_true"
                    },
                    "output_state": {
                        "Name": "minecraft:skeleton_skull",
                        "Properties": {
                            "rotation": "3"
                        }
                    }
                },
                {
                    "input_predicate": {
                        "block": "minecraft:skeleton_skull",
                        "predicate_type": "minecraft:random_block_match",
                        "probability": 0.07
                    },
                    "location_predicate": {
                        "predicate_type": "minecraft:always_true"
                    },
                    "output_state": {
                        "Name": "minecraft:skeleton_skull",
                        "Properties": {
                            "rotation": "4"
                        }
                    }
                },
                {
                    "input_predicate": {
                        "block": "minecraft:skeleton_skull",
                        "predicate_type": "minecraft:random_block_match",
                        "probability": 0.07
                    },
                    "location_predicate": {
                        "predicate_type": "minecraft:always_true"
                    },
                    "output_state": {
                        "Name": "minecraft:skeleton_skull",
                        "Properties": {
                            "rotation": "5"
                        }
                    }
                },
                {
                    "input_predicate": {
                        "block": "minecraft:skeleton_skull",
                        "predicate_type": "minecraft:random_block_match",
                        "probability": 0.07
                    },
                    "location_predicate": {
                        "predicate_type": "minecraft:always_true"
                    },
                    "output_state": {
                        "Name": "minecraft:skeleton_skull",
                        "Properties": {
                            "rotation": "6"
                        }
                    }
                },
                {
                    "input_predicate": {
                        "block": "minecraft:skeleton_skull",
                        "predicate_type": "minecraft:random_block_match",
                        "probability": 0.07
                    },
                    "location_predicate": {
                        "predicate_type": "minecraft:always_true"
                    },
                    "output_state": {
                        "Name": "minecraft:skeleton_skull",
                        "Properties": {
                            "rotation": "7"
                        }
                    }
                },
                {
                    "input_predicate": {
                        "block": "minecraft:skeleton_skull",
                        "predicate_type": "minecraft:random_block_match",
                        "probability": 0.07
                    },
                    "location_predicate": {
                        "predicate_type": "minecraft:always_true"
                    },
                    "output_state": {
                        "Name": "minecraft:skeleton_skull",
                        "Properties": {
                            "rotation": "8"
                        }
                    }
                },
                {
                    "input_predicate": {
                        "block": "minecraft:skeleton_skull",
                        "predicate_type": "minecraft:random_block_match",
                        "probability": 0.07
                    },
                    "location_predicate": {
                        "predicate_type": "minecraft:always_true"
                    },
                    "output_state": {
                        "Name": "minecraft:skeleton_skull",
                        "Properties": {
                            "rotation": "9"
                        }
                    }
                },
                {
                    "input_predicate": {
                        "block": "minecraft:skeleton_skull",
                        "predicate_type": "minecraft:random_block_match",
                        "probability": 0.07
                    },
                    "location_predicate": {
                        "predicate_type": "minecraft:always_true"
                    },
                    "output_state": {
                        "Name": "minecraft:skeleton_skull",
                        "Properties": {
                            "rotation": "10"
                        }
                    }
                },
                {
                    "input_predicate": {
                        "block": "minecraft:skeleton_skull",
                        "predicate_type": "minecraft:random_block_match",
                        "probability": 0.07
                    },
                    "location_predicate": {
                        "predicate_type": "minecraft:always_true"
                    },
                    "output_state": {
                        "Name": "minecraft:skeleton_skull",
                        "Properties": {
                            "rotation": "11"
                        }
                    }
                },
                {
                    "input_predicate": {
                        "block": "minecraft:skeleton_skull",
                        "predicate_type": "minecraft:random_block_match",
                        "probability": 0.07
                    },
                    "location_predicate": {
                        "predicate_type": "minecraft:always_true"
                    },
                    "output_state": {
                        "Name": "minecraft:skeleton_skull",
                        "Properties": {
                            "rotation": "12"
                        }
                    }
                },
                {
                    "input_predicate": {
                        "block": "minecraft:skeleton_skull",
                        "predicate_type": "minecraft:random_block_match",
                        "probability": 0.07
                    },
                    "location_predicate": {
                        "predicate_type": "minecraft:always_true"
                    },
                    "output_state": {
                        "Name": "minecraft:skeleton_skull",
                        "Properties": {
                            "rotation": "13"
                        }
                    }
                },
                {
                    "input_predicate": {
                        "block": "minecraft:skeleton_skull",
                        "predicate_type": "minecraft:random_block_match",
                        "probability": 0.07
                    },
                    "location_predicate": {
                        "predicate_type": "minecraft:always_true"
                    },
                    "output_state": {
                        "Name": "minecraft:skeleton_skull",
                        "Properties": {
                            "rotation": "14"
                        }
                    }
                },
                {
                    "input_predicate": {
                        "block": "minecraft:skeleton_skull",
                        "predicate_type": "minecraft:random_block_match",
                        "probability": 0.07
                    },
                    "location_predicate": {
                        "predicate_type": "minecraft:always_true"
                    },
                    "output_state": {
                        "Name": "minecraft:skeleton_skull",
                        "Properties": {
                            "rotation": "15"
                        }
                    }
                },
                {
                    "input_predicate": {
                        "block": "cobblemon:relic_coin_pouch",
                        "predicate_type": "minecraft:random_block_match",
                        "probability": 0.4
                    },
                    "location_predicate": {
                        "predicate_type": "minecraft:always_true"
                    },
                    "output_state": {
                        "Name": "cobblemon:relic_coin_pouch",
                        "Properties": {
                            "facing": "north",
                            "natural": "true"
                        }
                    }
                },
                {
                    "input_predicate": {
                        "block": "cobblemon:relic_coin_pouch",
                        "predicate_type": "minecraft:random_block_match",
                        "probability": 0.3
                    },
                    "location_predicate": {
                        "predicate_type": "minecraft:always_true"
                    },
                    "output_state": {
                        "Name": "cobblemon:relic_coin_pouch",
                        "Properties": {
                            "facing": "south",
                            "natural": "true"
                        }
                    }
                },
                {
                    "input_predicate": {
                        "block": "cobblemon:relic_coin_pouch",
                        "predicate_type": "minecraft:random_block_match",
                        "probability": 0.3
                    },
                    "location_predicate": {
                        "predicate_type": "minecraft:always_true"
                    },
                    "output_state": {
                        "Name": "cobblemon:relic_coin_pouch",
                        "Properties": {
                            "facing": "east",
                            "natural": "true"
                        }
                    }
                },
                {
                    "input_predicate": {
                        "block": "cobblemon:relic_coin_pouch",
                        "predicate_type": "minecraft:random_block_match",
                        "probability": 0.1
                    },
                    "location_predicate": {
                        "predicate_type": "minecraft:always_true"
                    },
                    "output_state": {
                        "Name": "cobblemon:relic_coin_pouch",
                        "Properties": {
                            "facing": "west",
                            "natural": "true"
                        }
                    }
                }
            ]
        },
        {
            "delegate": {
                "processor_type": "minecraft:rule",
                "rules": [
                    {
                        "block_entity_modifier": {
                            "type": "minecraft:append_loot",
                            "loot_table": "cobblemon:ruins/uncommon/unstable_cave_ruins"
                        },
                        "input_predicate": {
                            "block": "minecraft:suspicious_gravel",
                            "predicate_type": "minecraft:random_block_match",
                            "probability": 0.5
                        },
                        "location_predicate": {
                            "predicate_type": "minecraft:always_true"
                        },
                        "output_state": {
                            "Name": "minecraft:suspicious_gravel"
                        }
                    }
                ]
            },
            "limit": 15,
            "processor_type": "minecraft:capped"
        },
        {
            "delegate": {
                "processor_type": "minecraft:rule",
                "rules": [
                    {
                        "input_predicate": {
                            "block": "minecraft:chest",
                            "predicate_type": "minecraft:random_block_match",
                            "probability": 1.0
                        },
                        "location_predicate": {
                            "predicate_type": "minecraft:always_true"
                        },
                        "output_state": {
                            "Name": "minecraft:air"
                        }
                    }
                ]
            },
            "limit": 1,
            "processor_type": "minecraft:capped"
        },
        {
            "delegate": {
                "processor_type": "minecraft:rule",
                "rules": [
                    {
                        "block_entity_modifier": {
                            "type": "minecraft:append_loot",
                            "loot_table": "cobblemon:ruins/rare/black_tumblestone"
                        },
                        "input_predicate": {
                            "block": "minecraft:suspicious_gravel",
                            "predicate_type": "minecraft:random_block_match",
                            "probability": 1.0
                        },
                        "location_predicate": {
                            "predicate_type": "minecraft:always_true"
                        },
                        "output_state": {
                            "Name": "minecraft:suspicious_gravel"
                        }
                    }
                ]
            },
            "limit": 3,
            "processor_type": "minecraft:capped"
        },
        {
            "delegate": {
                "processor_type": "minecraft:rule",
                "rules": [
                    {
                        "input_predicate": {
                            "block_state": {
                                "Name": "minecraft:chest",
                                "Properties": {
                                    "facing": "north"
                                }
                            },
                            "predicate_type": "minecraft:random_blockstate_match",
                            "probability": 1.0
                        },
                        "location_predicate": {
                            "predicate_type": "minecraft:always_true"
                        },
                        "output_state": {
                            "Name": "cobblemon:gimmighoul_chest",
                            "Properties": {
                                "facing": "north"
                            }
                        }
                    },
                    {
                        "input_predicate": {
                            "block_state": {
                                "Name": "minecraft:chest",
                                "Properties": {
                                    "facing": "south"
                                }
                            },
                            "predicate_type": "minecraft:random_blockstate_match",
                            "probability": 1.0
                        },
                        "location_predicate": {
                            "predicate_type": "minecraft:always_true"
                        },
                        "output_state": {
                            "Name": "cobblemon:gimmighoul_chest",
                            "Properties": {
                                "facing": "south"
                            }
                        }
                    },
                    {
                        "input_predicate": {
                            "block_state": {
                                "Name": "minecraft:chest",
                                "Properties": {
                                    "facing": "east"
                                }
                            },
                            "predicate_type": "minecraft:random_blockstate_match",
                            "probability": 1.0
                        },
                        "location_predicate": {
                            "predicate_type": "minecraft:always_true"
                        },
                        "output_state": {
                            "Name": "cobblemon:gimmighoul_chest",
                            "Properties": {
                                "facing": "east"
                            }
                        }
                    },
                    {
                        "input_predicate": {
                            "block_state": {
                                "Name": "minecraft:chest",
                                "Properties": {
                                    "facing": "west"
                                }
                            },
                            "predicate_type": "minecraft:random_blockstate_match",
                            "probability": 1.0
                        },
                        "location_predicate": {
                            "predicate_type": "minecraft:always_true"
                        },
                        "output_state": {
                            "Name": "cobblemon:gimmighoul_chest",
                            "Properties": {
                                "facing": "west"
                            }
                        }
                    }
                ]
            },
            "limit": 1,
            "processor_type": "minecraft:capped"
        },
        {
            "delegate": {
                "processor_type": "minecraft:rule",
                "rules": [
                    {
                        "block_entity_modifier": {
                            "type": "minecraft:append_loot",
                            "loot_table": "cobblemon:ruins/gilded_chests/ruins"
                        },
                        "input_predicate": {
                            "block_state": {
                                "Name": "minecraft:chest",
                                "Properties": {
                                    "facing": "north",
                                    "type": "single",
                                    "waterlogged": "false"
                                }
                            },
                            "predicate_type": "minecraft:random_blockstate_match",
                            "probability": 1.0
                        },
                        "location_predicate": {
                            "predicate_type": "minecraft:always_true"
                        },
                        "output_state": {
                            "Name": "cobblemon:gilded_chest",
                            "Properties": {
                                "facing": "north"
                            }
                        }
                    },
                    {
                        "block_entity_modifier": {
                            "type": "minecraft:append_loot",
                            "loot_table": "cobblemon:ruins/gilded_chests/ruins"
                        },
                        "input_predicate": {
                            "block_state": {
                                "Name": "minecraft:chest",
                                "Properties": {
                                    "facing": "south",
                                    "type": "single",
                                    "waterlogged": "false"
                                }
                            },
                            "predicate_type": "minecraft:random_blockstate_match",
                            "probability": 1.0
                        },
                        "location_predicate": {
                            "predicate_type": "minecraft:always_true"
                        },
                        "output_state": {
                            "Name": "cobblemon:gilded_chest",
                            "Properties": {
                                "facing": "south"
                            }
                        }
                    },
                    {
                        "block_entity_modifier": {
                            "type": "minecraft:append_loot",
                            "loot_table": "cobblemon:ruins/gilded_chests/ruins"
                        },
                        "input_predicate": {
                            "block_state": {
                                "Name": "minecraft:chest",
                                "Properties": {
                                    "facing": "east",
                                    "type": "single",
                                    "waterlogged": "false"
                                }
                            },
                            "predicate_type": "minecraft:random_blockstate_match",
                            "probability": 1.0
                        },
                        "location_predicate": {
                            "predicate_type": "minecraft:always_true"
                        },
                        "output_state": {
                            "Name": "cobblemon:gilded_chest",
                            "Properties": {
                                "facing": "east"
                            }
                        }
                    },
                    {
                        "block_entity_modifier": {
                            "type": "minecraft:append_loot",
                            "loot_table": "cobblemon:ruins/gilded_chests/ruins"
                        },
                        "input_predicate": {
                            "block_state": {
                                "Name": "minecraft:chest",
                                "Properties": {
                                    "facing": "west",
                                    "type": "single",
                                    "waterlogged": "false"
                                }
                            },
                            "predicate_type": "minecraft:random_blockstate_match",
                            "probability": 1.0
                        },
                        "location_predicate": {
                            "predicate_type": "minecraft:always_true"
                        },
                        "output_state": {
                            "Name": "cobblemon:gilded_chest",
                            "Properties": {
                                "facing": "west"
                            }
                        }
                    }
                ]
            },
            "limit": 1,
            "processor_type": "minecraft:capped"
        },
        {
            "delegate": {
                "processor_type": "minecraft:rule",
                "rules": [
                    {
                        "block_entity_modifier": {
                            "type": "minecraft:append_loot",
                            "loot_table": "cobblemon:ruins/vanilla_loot/vanilla_loot"
                        },
                        "input_predicate": {
                            "block_state": {
                                "Name": "minecraft:chest",
                                "Properties": {
                                    "facing": "north",
                                    "type": "single",
                                    "waterlogged": "false"
                                }
                            },
                            "predicate_type": "minecraft:random_blockstate_match",
                            "probability": 1.0
                        },
                        "location_predicate": {
                            "predicate_type": "minecraft:always_true"
                        },
                        "output_state": {
                            "Name": "minecraft:chest",
                            "Properties": {
                                "facing": "north"
                            }
                        }
                    },
                    {
                        "block_entity_modifier": {
                            "type": "minecraft:append_loot",
                            "loot_table": "cobblemon:ruins/vanilla_loot/vanilla_loot"
                        },
                        "input_predicate": {
                            "block_state": {
                                "Name": "minecraft:chest",
                                "Properties": {
                                    "facing": "south",
                                    "type": "single",
                                    "waterlogged": "false"
                                }
                            },
                            "predicate_type": "minecraft:random_blockstate_match",
                            "probability": 1.0
                        },
                        "location_predicate": {
                            "predicate_type": "minecraft:always_true"
                        },
                        "output_state": {
                            "Name": "minecraft:chest",
                            "Properties": {
                                "facing": "south"
                            }
                        }
                    },
                    {
                        "block_entity_modifier": {
                            "type": "minecraft:append_loot",
                            "loot_table": "cobblemon:ruins/vanilla_loot/vanilla_loot"
                        },
                        "input_predicate": {
                            "block_state": {
                                "Name": "minecraft:chest",
                                "Properties": {
                                    "facing": "east",
                                    "type": "single",
                                    "waterlogged": "false"
                                }
                            },
                            "predicate_type": "minecraft:random_blockstate_match",
                            "probability": 1.0
                        },
                        "location_predicate": {
                            "predicate_type": "minecraft:always_true"
                        },
                        "output_state": {
                            "Name": "minecraft:chest",
                            "Properties": {
                                "facing": "east"
                            }
                        }
                    },
                    {
                        "block_entity_modifier": {
                            "type": "minecraft:append_loot",
                            "loot_table": "cobblemon:ruins/vanilla_loot/vanilla_loot"
                        },
                        "input_predicate": {
                            "block_state": {
                                "Name": "minecraft:chest",
                                "Properties": {
                                    "facing": "west",
                                    "type": "single",
                                    "waterlogged": "false"
                                }
                            },
                            "predicate_type": "minecraft:random_blockstate_match",
                            "probability": 1.0
                        },
                        "location_predicate": {
                            "predicate_type": "minecraft:always_true"
                        },
                        "output_state": {
                            "Name": "minecraft:chest",
                            "Properties": {
                                "facing": "west"
                            }
                        }
                    }
                ]
            },
            "limit": 1,
            "processor_type": "minecraft:capped"
        }
    ]
}