{
  "implemented": true,
  "name": "Anorith",
  "nationalPokedexNumber": 347,
  "primaryType": "rock",
  "secondaryType": "bug",
  "abilities": [
    "battlearmor",
    "h:swiftswim"
  ],
  "baseStats": {
    "hp": 45,
    "attack": 95,
    "defence": 50,
    "special_attack": 40,
    "special_defence": 50,
    "speed": 75
  },
  "behaviour": {
    "moving": {
      "walk": {
        "avoidsLand": false,
        "walkSpeed": 0.17
      },
      "swim": {
        "swimSpeed": 0.1,
        "canSwimInWater": true,
        "canBreatheUnderwater": true,
        "canWalkOnWater": true
      }
    },
    "resting": {
      "canSleep": true,
      "willSleepOnBed": false,
      "depth": "normal",
      "light": "0-4"
    }
  },
  "catchRate": 45,
  "maleRatio": 0.875,
  "shoulderMountable": true,
  "baseExperienceYield": 71,
  "experienceGroup": "erratic",
  "eggCycles": 30,
  "eggGroups": [
    "water_3"
  ],
  "moves": [
    "1:furycutter",
    "1:harden",
    "1:scratch",
    "4:mudsport",
    "4:watergun",
    "8:smackdown",
    "12:metalclaw",
    "16:ancientpower",
    "20:bugbite",
    "24:brine",
    "28:slash",
    "32:crushclaw",
    "36:rockblast",
    "41:protect",
    "44:xscissor",
    "egg:aquajet",
    "egg:crosspoison",
    "egg:curse",
    "egg:irondefense",
    "egg:knockoff",
    "egg:rapidspin",
    "egg:rockslide",
    "egg:sandattack",
    "egg:screech",
    "egg:swordsdance",
    "egg:waterpulse",
    "tm:aerialace",
    "tm:attract",
    "tm:bodyslam",
    "tm:brickbreak",
    "tm:brine",
    "tm:captivate",
    "tm:confide",
    "tm:crosspoison",
    "tm:cut",
    "tm:dig",
    "tm:doubleteam",
    "tm:earthpower",
    "tm:endure",
    "tm:facade",
    "tm:falseswipe",
    "tm:frustration",
    "tm:hiddenpower",
    "tm:honeclaws",
    "tm:irondefense",
    "tm:mudshot",
    "tm:naturalgift",
    "tm:protect",
    "tm:rest",
    "tm:return",
    "tm:rockblast",
    "tm:rockpolish",
    "tm:rockslide",
    "tm:rocksmash",
    "tm:rocktomb",
    "tm:round",
    "tm:sandstorm",
    "tm:screech",
    "tm:secretpower",
    "tm:sleeptalk",
    "tm:smackdown",
    "tm:snore",
    "tm:stealthrock",
    "tm:strugglebug",
    "tm:substitute",
    "tm:sunnyday",
    "tm:swagger",
    "tm:swordsdance",
    "tm:toxic",
    "tm:waterpulse",
    "tm:xscissor",
    "tutor:ancientpower",
    "tutor:bodyslam",
    "tutor:bugbite",
    "tutor:crosspoison",
    "tutor:doubleedge",
    "tutor:earthpower",
    "tutor:endure",
    "tutor:furycutter",
    "tutor:harden",
    "tutor:headbutt",
    "tutor:irondefense",
    "tutor:knockoff",
    "tutor:meteorbeam",
    "tutor:mimic",
    "tutor:mudslap",
    "tutor:mudsport",
    "tutor:rockslide",
    "tutor:scratch",
    "tutor:sleeptalk",
    "tutor:snore",
    "tutor:stealthrock",
    "tutor:stringshot",
    "tutor:substitute",
    "tutor:swagger",
    "tutor:swordsdance",
    "tutor:watergun",
    "tutor:waterpulse"
  ],
  "labels": [
    "gen3"
  ],
  "pokedex": [
    "cobblemon.species.anorith.desc"
  ],
  "evolutions": [
    {
      "id": "anorith_armaldo",
      "variant": "level_up",
      "result": "armaldo",
      "consumeHeldItem": false,
      "learnableMoves": [],
      "requirements": [
        {
          "variant": "level",
          "minLevel": 40
        }
      ]
    }
  ],
  "baseScale": 1,
  "hitbox": {
    "width": 0.9,
    "height": 0.2,
    "fixed": false
  },
  "baseFriendship": 50,
  "evYield": {
    "hp": 0,
    "attack": 1,
    "defence": 0,
    "special_attack": 0,
    "special_defence": 0,
    "speed": 0
  },
  "height": 7,
  "weight": 125,
  "aspects": [],
  "cannotDynamax": false,
  "drops": {
    "amount": 2,
    "entries": [
      {
        "item": "minecraft:scute",
        "quantityRange": "0-2"
      }
    ]
  }
}