{
	"format_version": "1.8.0",
	"animations": {
		"animation.conkeldurr.ground_idle": {
			"loop": true,
			"animation_length": 4,
			"bones": {
				"waist": {
					"rotation": [12.5, 0, 0]
				},
				"chest": {
					"rotation": ["5-2*math.sin(q.anim_time*90*1-90)", 0, 0]
				},
				"arm_left": {
					"rotation": [-15, 0, 0],
					"position": [0, "-0.1*math.sin(q.anim_time*90*1-90)", "0.1*math.sin(q.anim_time*90*1-90)"]
				},
				"arm_left_rotation": {
					"rotation": ["-7.11+2*math.sin(q.anim_time*90*1-90)", 22.29711, -3.09472],
					"position": [0, "-0.3+0.3*math.sin(q.anim_time*90*1)", 0]
				},
				"arm_left2": {
					"rotation": [-2.05515, 41.81681, -0.37309]
				},
				"wrist_left": {
					"rotation": [3.03642, 16.80984, -8.2641]
				},
				"hand_left": {
					"rotation": ["-3.2436-1*math.sin(q.anim_time*90*1-90)", 2.00248, "-1.8141-1*math.sin(q.anim_time*90*1-90)"]
				},
				"finger_back_left2": {
					"rotation": [0, 0, -25]
				},
				"finger_middle_left": {
					"rotation": [-0.60957, 9.96578, 0.50923],
					"position": [-0.2, 0, 0]
				},
				"finger_middle_left2": {
					"rotation": [0, 0, -22.5]
				},
				"thumb_left": {
					"rotation": [43.49988, 37.57167, 125.81223],
					"position": [0.96755, 1.32986, -0.12401]
				},
				"thumb_left2": {
					"rotation": [0, -54.8742, 0]
				},
				"leg_left": {
					"rotation": [0, -5, -15],
					"position": [0, 0, -1]
				},
				"foot_left": {
					"rotation": [0.67276, -20.13853, 5.32142]
				},
				"leg_right": {
					"rotation": [0, 5, 15],
					"position": [0, 0, -1]
				},
				"foot_right": {
					"rotation": [0.67276, 20.13853, -5.32142]
				},
				"pillar_connected_left": {
					"rotation": [-0.08508, -0.64686, 14.98637],
					"position": [-0.27434, 9.83489, -0.09301]
				},
				"arm_right": {
					"rotation": [-15, 0, 0],
					"position": [0, "-0.1*math.sin(q.anim_time*90*1-90)", "0.1*math.sin(q.anim_time*90*1-90)"]
				},
				"arm_right_rotation": {
					"rotation": ["-8.11+2*math.sin(q.anim_time*90*1-90)", -22.29711, 3.09472],
					"position": [0, "-0.3+0.2*math.sin(q.anim_time*90*1)", 0]
				},
				"arm_right2": {
					"rotation": [-2.05515, -41.81681, 0.37309]
				},
				"wrist_right": {
					"rotation": [3.03642, -16.80984, 8.2641]
				},
				"hand_right": {
					"rotation": ["-3.2436-1*math.sin(q.anim_time*90*1-90)", -2.00248, "1.8141+1*math.sin(q.anim_time*90*1-90)"]
				},
				"finger_back_right": {
					"rotation": [1.14172, 7.51805, -1.88721],
					"position": [0.1, 0, 0]
				},
				"finger_back_right2": {
					"rotation": [0, 0, 25]
				},
				"finger_middle_right": {
					"rotation": [-0.60957, -9.96578, -0.50923],
					"position": [0.2, 0, 0]
				},
				"finger_middle_right2": {
					"rotation": [0, 0, 22.5]
				},
				"thumb_right": {
					"rotation": [43.49988, -37.57167, -125.81223],
					"position": [-0.96755, 1.32986, -0.12401]
				},
				"thumb_right2": {
					"rotation": [0, 54.8742, 0]
				},
				"pillar_connected_right": {
					"rotation": [-0.08508, 0.64686, -14.98637],
					"position": [0.27434, 9.83489, -0.09301]
				},
				"head": {
					"rotation": ["-12.5+3*math.sin(q.anim_time*90*1-50)", 0, 0],
					"position": [0, -0.1, -1]
				},
				"hair": {
					"rotation": [-10, 0, 0]
				},
				"hair2": {
					"rotation": [-10, 0, 0]
				},
				"body": {
					"position": [0, -0.25, 4]
				},
				"leg_left2": {
					"rotation": [0, 0, 10]
				},
				"leg_right2": {
					"rotation": [0, 0, -10]
				},
				"torso": {
					"rotation": ["1*math.sin(q.anim_time*90*1-50)", 0, 0],
					"position": [0, "0.1*math.sin(q.anim_time*90*1)", 0]
				},
				"finger_back_left": {
					"rotation": [1.14172, -7.51805, 1.88721],
					"position": [-0.1, 0, 0]
				},
				"fbody": {
					"position": [0, -0.25, 4]
				},
				"ftorso": {
					"rotation": ["1*math.sin(q.anim_time*90*1-50)", 0, 0],
					"position": [0, "0.1*math.sin(q.anim_time*90*1)", 0]
				},
				"fwaist": {
					"rotation": [12.5, 0, 0]
				},
				"fchest": {
					"rotation": ["5-2*math.sin(q.anim_time*90*1-90)", 0, 0]
				},
				"farm_left": {
					"rotation": [-15, 0, 0]
				},
				"farm_left_rotation": {
					"rotation": ["-7.11+2*math.sin(q.anim_time*90*1-90)", 22.29711, -3.09472],
					"position": [0, "-0.3+0.3*math.sin(q.anim_time*90*1)", 0]
				},
				"farm_left2": {
					"rotation": [-2.05515, 41.81681, -0.37309]
				},
				"fwrist_left": {
					"rotation": [3.03642, 16.80984, -8.2641]
				},
				"fhand_left": {
					"rotation": ["-3.2436-1*math.sin(q.anim_time*90*1-90)", 2.00248, "-1.8141-1*math.sin(q.anim_time*90*1-90)"]
				},
				"pillar_disconnected_left": {
					"rotation": [-0.08508, -0.64686, 14.98637],
					"position": [-0.27434, 9.83489, -0.09301]
				},
				"farm_right": {
					"rotation": [-15, 0, 0]
				},
				"farm_right_rotation": {
					"rotation": ["-8.11+2*math.sin(q.anim_time*90*1-90)", -22.29711, 3.09472],
					"position": [0, "-0.3+0.2*math.sin(q.anim_time*90*1)", 0]
				},
				"farm_right2": {
					"rotation": [-2.05515, -41.81681, 0.37309]
				},
				"fwrist_right": {
					"rotation": [3.03642, -16.80984, 8.2641]
				},
				"fhand_right": {
					"rotation": ["-3.2436-1*math.sin(q.anim_time*90*1-90)", -2.00248, "1.8141+1*math.sin(q.anim_time*90*1-90)"]
				},
				"pillar_disconnected_right": {
					"rotation": [-0.08508, 0.64686, -14.98637],
					"position": [0.27434, 9.83489, -0.09301]
				}
			}
		},
		"animation.conkeldurr.ground_walk": {
			"loop": true,
			"animation_length": 4,
			"bones": {
				"waist": {
					"rotation": [12.5, "-5*math.sin(q.anim_time*90*2)", "10*math.cos(q.anim_time*90*2)"]
				},
				"chest": {
					"rotation": ["5-2*math.sin(q.anim_time*90*4-90)", "-20*math.sin(q.anim_time*90*2)", "5*math.cos(q.anim_time*90*2)"]
				},
				"arm_left": {
					"rotation": {
						"0.0": {
							"post": [-29.57, 0, 0],
							"lerp_mode": "catmullrom"
						},
						"0.9583": {
							"post": [-17.56274, -4.76804, 1.50701],
							"lerp_mode": "catmullrom"
						},
						"1.375": {
							"post": [-37.5, 0, 0],
							"lerp_mode": "catmullrom"
						},
						"1.4583": {
							"post": [-14.94548, -1.29256, -4.83045],
							"lerp_mode": "catmullrom"
						},
						"2.0": {
							"post": [-29.57, 0, 0],
							"lerp_mode": "catmullrom"
						},
						"2.9583": {
							"post": [-17.56274, -4.76804, 1.50701],
							"lerp_mode": "catmullrom"
						},
						"3.375": {
							"post": [-37.5, 0, 0],
							"lerp_mode": "catmullrom"
						},
						"3.4583": {
							"post": [-14.94548, -1.29256, -4.83045],
							"lerp_mode": "catmullrom"
						},
						"4.0": {
							"post": [-29.57, 0, 0],
							"lerp_mode": "catmullrom"
						}
					},
					"position": {
						"0.0": [0, 0, 0],
						"0.5": [0, 0, 0],
						"1.5": [0, -0.5, 0],
						"1.5833": [0, -1.1, 0],
						"1.6667": [0, -0.1, 0],
						"1.7917": [0, -0.9, 0],
						"2.0": [0, 0, 0],
						"3.5": [0, -0.5, 0],
						"3.5833": [0, -1.1, 0],
						"3.6667": [0, -0.1, 0],
						"3.7917": [0, -0.9, 0],
						"4.0": [0, 0, 0]
					}
				},
				"arm_left_rotation": {
					"rotation": ["-7.4286+2*math.sin(q.anim_time*90*4-90)", "7.512-10*math.sin(q.anim_time*90*2)", -0.4682],
					"position": [0, "-0.3+0.3*math.sin(q.anim_time*90*1)", 0]
				},
				"arm_left2": {
					"rotation": [-2.79803, "56.8038+10*math.sin(q.anim_time*90*2)", -1.34444]
				},
				"wrist_left": {
					"rotation": {
						"0.0": [5.98477, 16.021, "2.1297+10*math.sin(q.anim_time*90*2)"],
						"1.5": [3.04, 16.81, "-8.2641+10*math.sin(q.anim_time*90*2)"],
						"2.0": [5.98477, 16.021, "2.1297+10*math.sin(q.anim_time*90*2)"],
						"3.5": [3.04, 16.81, "-8.2641+10*math.sin(q.anim_time*90*2)"],
						"4.0": [5.98477, 16.021, "2.1297+10*math.sin(q.anim_time*90*2)"]
					}
				},
				"hand_left": {
					"rotation": {
						"0.0": ["-3.243-1*math.sin(q.anim_time*90*1-90)", 1.99504, "-1.8136+10*math.cos(q.anim_time*90*2)"],
						"0.7083": ["-13.0498-1*math.sin(q.anim_time*90*1-90)", 2.80836, "3.1032+10*math.cos(q.anim_time*90*2)"],
						"1.375": [-4.46295, 3.63573, 12.59313],
						"1.5": ["-3.2436-1*math.sin(q.anim_time*90*1-90)", 2, "-1.8141+10*math.cos(q.anim_time*90*2)"],
						"2.0": ["-3.243-1*math.sin(q.anim_time*90*1-90)", 1.99504, "-1.8136+10*math.cos(q.anim_time*90*2)"],
						"2.7083": ["-13.0498-1*math.sin(q.anim_time*90*1-90)", 2.80836, "3.1032+10*math.cos(q.anim_time*90*2)"],
						"3.375": [-4.46295, 3.63573, 12.59313],
						"3.5": ["-3.2436-1*math.sin(q.anim_time*90*1-90)", 2, "-1.8141+10*math.cos(q.anim_time*90*2)"],
						"4.0": ["-3.243-1*math.sin(q.anim_time*90*1-90)", 1.99504, "-1.8136+10*math.cos(q.anim_time*90*2)"]
					}
				},
				"finger_back_left2": {
					"rotation": [0, 0, -25]
				},
				"finger_middle_left": {
					"rotation": [-0.60957, 9.96578, 0.50923],
					"position": [-0.2, 0, 0]
				},
				"finger_middle_left2": {
					"rotation": [0, 0, -22.5]
				},
				"thumb_left": {
					"rotation": [43.49988, 37.57167, 125.81223],
					"position": [0.96755, 1.32986, -0.12401]
				},
				"thumb_left2": {
					"rotation": [0, -54.8742, 0]
				},
				"leg_left": {
					"rotation": {
						"0.0": {
							"post": [9.97, -5.01, -16.24],
							"lerp_mode": "catmullrom"
						},
						"0.4167": {
							"post": [-20.20833, -5, -15],
							"lerp_mode": "catmullrom"
						},
						"0.5": {
							"post": [-0.87038, -4.92385, -4.96258],
							"lerp_mode": "catmullrom"
						},
						"1.625": {
							"post": [45, -5, -15],
							"lerp_mode": "catmullrom"
						},
						"2.0": {
							"post": [9.97, -5.01, -16.24],
							"lerp_mode": "catmullrom"
						},
						"2.4167": {
							"post": [-20.20833, -5, -15],
							"lerp_mode": "catmullrom"
						},
						"2.5": {
							"post": [-0.87038, -4.92385, -4.96258],
							"lerp_mode": "catmullrom"
						},
						"3.5833": {
							"post": [45, -5, -15],
							"lerp_mode": "catmullrom"
						},
						"4.0": {
							"post": [9.97, -5.01, -16.24],
							"lerp_mode": "catmullrom"
						}
					},
					"position": {
						"0.0": [0, 0.89, -0.33],
						"0.375": [0, 1.55, -3.58],
						"0.5": [0, 0.3, -4],
						"1.5": [0, 0, 4],
						"2.0": [0, 0.89, -0.33],
						"2.375": [0, 1.55, -3.58],
						"2.5": [0, 0.3, -4],
						"3.5": [0, 0, 4],
						"4.0": [0, 0.89, -0.33]
					}
				},
				"foot_left": {
					"rotation": {
						"0.0": {
							"post": [-0.05, -13.75, 6.06],
							"lerp_mode": "catmullrom"
						},
						"0.375": {
							"post": [6.88443, -24.25725, 6.70491],
							"lerp_mode": "catmullrom"
						},
						"0.5": {
							"post": [4.30081, -19.70503, -5.3083],
							"lerp_mode": "catmullrom"
						},
						"1.5": {
							"post": [-8.75507, -0.38339, 2.14133],
							"lerp_mode": "catmullrom"
						},
						"2.0": {
							"post": [-0.05, -13.75, 6.06],
							"lerp_mode": "catmullrom"
						},
						"2.375": {
							"post": [6.88443, -24.25725, 6.70491],
							"lerp_mode": "catmullrom"
						},
						"2.5": {
							"post": [4.30081, -19.70503, -5.3083],
							"lerp_mode": "catmullrom"
						},
						"3.5": {
							"post": [-8.75507, -0.38339, 2.14133],
							"lerp_mode": "catmullrom"
						},
						"4.0": {
							"post": [-0.05, -13.75, 6.06],
							"lerp_mode": "catmullrom"
						}
					}
				},
				"leg_right": {
					"rotation": {
						"0.0": {
							"post": [23.17, 4.95, 8.76],
							"lerp_mode": "catmullrom"
						},
						"0.5833": {
							"post": [45, 5, 15],
							"lerp_mode": "catmullrom"
						},
						"1.0": {
							"post": [9.97, 5.01, 16.24],
							"lerp_mode": "catmullrom"
						},
						"1.4167": {
							"post": [-20.20833, 5, 15],
							"lerp_mode": "catmullrom"
						},
						"1.5": {
							"post": [-0.87038, 4.92385, 4.96258],
							"lerp_mode": "catmullrom"
						},
						"2.0": {
							"post": [23.17, 4.95, 8.76],
							"lerp_mode": "catmullrom"
						},
						"2.5833": {
							"post": [45, 5, 15],
							"lerp_mode": "catmullrom"
						},
						"3.0": {
							"post": [9.97, 5.01, 16.24],
							"lerp_mode": "catmullrom"
						},
						"3.4167": {
							"post": [-20.20833, 5, 15],
							"lerp_mode": "catmullrom"
						},
						"3.5": {
							"post": [-0.87038, 4.92385, 4.96258],
							"lerp_mode": "catmullrom"
						},
						"4.0": {
							"post": [23.17, 4.95, 8.76],
							"lerp_mode": "catmullrom"
						}
					},
					"position": {
						"0.0": [0, 0.15, 0],
						"0.5": [0, 0, 4],
						"1.0": [0, 0.89, -0.33],
						"1.375": [0, 1.55, -3.58],
						"1.5": [0, 0.3, -4],
						"2.5": [0, 0, 4],
						"3.375": [0, 1.55, -3.58],
						"3.5": [0, 0.3, -4],
						"4.0": [0, 0.15, 0]
					}
				},
				"foot_right": {
					"rotation": {
						"0.0": {
							"post": [-2.22, 9.98, 3],
							"lerp_mode": "catmullrom"
						},
						"0.5417": {
							"post": [-8.75507, 0.38339, -2.14133],
							"lerp_mode": "catmullrom"
						},
						"1.0417": {
							"post": [-0.05, 13.75, -6.06],
							"lerp_mode": "catmullrom"
						},
						"1.4167": {
							"post": [6.88443, 24.25725, -6.70491],
							"lerp_mode": "catmullrom"
						},
						"1.5417": {
							"post": [4.30081, 19.70503, 5.3083],
							"lerp_mode": "catmullrom"
						},
						"2.5417": {
							"post": [-8.75507, 0.38339, -2.14133],
							"lerp_mode": "catmullrom"
						},
						"3.0417": {
							"post": [-0.05, 13.75, -6.06],
							"lerp_mode": "catmullrom"
						},
						"3.4167": {
							"post": [6.88443, 24.25725, -6.70491],
							"lerp_mode": "catmullrom"
						},
						"3.5417": {
							"post": [4.30081, 19.70503, 5.3083],
							"lerp_mode": "catmullrom"
						},
						"4.0": {
							"post": [-2.22, 9.98, 3],
							"lerp_mode": "catmullrom"
						}
					}
				},
				"pillar_connected_left": {
					"rotation": [-0.08508, -0.64686, 14.98637],
					"position": [-0.27434, 9.83489, -0.09301]
				},
				"arm_right": {
					"rotation": {
						"0.0": {
							"post": [-17.56274, 4.76804, -1.50701],
							"lerp_mode": "catmullrom"
						},
						"0.4167": {
							"post": [-37.5, 0, 0],
							"lerp_mode": "catmullrom"
						},
						"0.5": {
							"post": [-14.94548, 1.29256, 4.83045],
							"lerp_mode": "catmullrom"
						},
						"1.0417": {
							"post": [-29.57, 0, 0],
							"lerp_mode": "catmullrom"
						},
						"2.0": {
							"post": [-10, 0, 0],
							"lerp_mode": "catmullrom"
						},
						"2.4167": {
							"post": [-37.5, 0, 0],
							"lerp_mode": "catmullrom"
						},
						"2.5": {
							"post": [-14.94548, 1.29256, 4.83045],
							"lerp_mode": "catmullrom"
						},
						"3.0417": {
							"post": [-29.57, 0, 0],
							"lerp_mode": "catmullrom"
						},
						"4.0": {
							"post": [-17.56274, 4.76804, -1.50701],
							"lerp_mode": "catmullrom"
						}
					},
					"position": {
						"0.0": [0, 0, 0],
						"0.5": [0, -0.5, 0],
						"0.5833": [0, -1.1, 0],
						"0.6667": [0, -0.1, 0],
						"0.7917": [0, -0.9, 0],
						"1.0417": [0, 0, 0],
						"2.5": [0, -0.5, 0],
						"2.5833": [0, -1.1, 0],
						"2.6667": [0, -0.1, 0],
						"2.7917": [0, -0.9, 0],
						"3.0417": [0, 0, 0],
						"4.0": [0, 0, 0]
					}
				},
				"arm_right_rotation": {
					"rotation": ["-7.4286+2*math.sin(q.anim_time*90*4-90)", "-7.512-10*math.sin(q.anim_time*90*2)", 0.4682],
					"position": [0, "-0.3+0.3*math.sin(q.anim_time*90*1)", 0]
				},
				"arm_right2": {
					"rotation": [-2.79803, "-56.8038+10*math.sin(q.anim_time*90*2)", 1.34444]
				},
				"wrist_right": {
					"rotation": {
						"0.0": [4.02, -16.55, 4.8],
						"0.5": [3.04, -16.81, "8.2641+10*math.sin(q.anim_time*90*2)"],
						"1.0": [5.98477, -16.021, "-2.1297+10*math.sin(q.anim_time*90*2)"],
						"2.0": [4.02, -16.55, 4.8],
						"2.5": [3.04, -16.81, "8.2641+10*math.sin(q.anim_time*90*2)"],
						"3.0": [5.98477, -16.021, "-2.1297+10*math.sin(q.anim_time*90*2)"],
						"4.0": [4.02, -16.55, 4.8]
					}
				},
				"hand_right": {
					"rotation": {
						"0.0": [-9.86, -3.17, -1.63],
						"0.375": [-5.17616, -2.99263, -3.65206],
						"0.5": ["-3.2436-1*math.sin(q.anim_time*90*1-90)", -2, "1.8141+10*math.cos(q.anim_time*90*2)"],
						"1.0": ["-3.243-1*math.sin(q.anim_time*90*1-90)", -1.99504, "1.8136+10*math.cos(q.anim_time*90*2)"],
						"1.7083": ["-13.0498-1*math.sin(q.anim_time*90*1-90)", -2.80836, "-3.1032+10*math.cos(q.anim_time*90*2)"],
						"2.0": [-9.86, -3.17, -1.63],
						"2.375": [-5.17616, -2.99263, -3.65206],
						"2.5": ["-3.2436-1*math.sin(q.anim_time*90*1-90)", -2, "1.8141+10*math.cos(q.anim_time*90*2)"],
						"3.0": ["-3.243-1*math.sin(q.anim_time*90*1-90)", -1.99504, "1.8136+10*math.cos(q.anim_time*90*2)"],
						"3.7083": ["-13.0498-1*math.sin(q.anim_time*90*1-90)", -2.80836, "-3.1032+10*math.cos(q.anim_time*90*2)"],
						"4.0": [-9.86, -3.17, -1.63]
					}
				},
				"finger_back_right": {
					"rotation": [1.14172, 7.51805, -1.88721],
					"position": [0.1, 0, 0]
				},
				"finger_back_right2": {
					"rotation": [0, 0, 25]
				},
				"finger_middle_right": {
					"rotation": [-0.60957, -9.96578, -0.50923],
					"position": [0.2, 0, 0]
				},
				"finger_middle_right2": {
					"rotation": [0, 0, 22.5]
				},
				"thumb_right": {
					"rotation": [43.49988, -37.57167, -125.81223],
					"position": [-0.96755, 1.32986, -0.12401]
				},
				"thumb_right2": {
					"rotation": [0, 54.8742, 0]
				},
				"pillar_connected_right": {
					"rotation": [-0.08508, 0.64686, -14.98637],
					"position": [0.27434, 9.83489, -0.09301]
				},
				"head": {
					"rotation": ["-12.5+3*math.sin(q.anim_time*90*4-50)", "10*math.sin(q.anim_time*90*2)", 0]
				},
				"hair": {
					"rotation": ["-10+3*math.sin(q.anim_time*90*8)", 0, 0]
				},
				"hair2": {
					"rotation": [-10, 0, 0]
				},
				"body": {
					"position": {
						"0.0": [0, -0.25, 4],
						"0.5": [0, -0.25, 4],
						"0.5417": [0, -0.85, 4],
						"0.5833": [0, -0.35, 4],
						"0.625": [0, -0.85, 4],
						"0.7083": [0, -0.45, 4],
						"0.8333": [0, -0.25, 4],
						"1.5": [0, -0.25, 4],
						"1.5417": [0, -0.85, 4],
						"1.5833": [0, -0.35, 4],
						"1.625": [0, -0.85, 4],
						"1.7083": [0, -0.45, 4],
						"1.8333": [0, -0.25, 4],
						"2.5": [0, -0.25, 4],
						"2.5417": [0, -0.85, 4],
						"2.5833": [0, -0.35, 4],
						"2.625": [0, -0.85, 4],
						"2.7083": [0, -0.45, 4],
						"2.8333": [0, -0.25, 4],
						"3.5": [0, -0.25, 4],
						"3.5417": [0, -0.85, 4],
						"3.5833": [0, -0.35, 4],
						"3.625": [0, -0.85, 4],
						"3.7083": [0, -0.45, 4],
						"3.8333": [0, -0.25, 4]
					}
				},
				"leg_left2": {
					"rotation": [0, 0, 10]
				},
				"leg_right2": {
					"rotation": [0, 0, -10]
				},
				"torso": {
					"rotation": ["1*math.sin(q.anim_time*90*1-50)", "20*math.sin(q.anim_time*90*2)", "-10*math.cos(q.anim_time*90*2)"],
					"position": [0, "0.8*math.sin(q.anim_time*90*4)", 0]
				},
				"finger_back_left": {
					"rotation": [1.14172, -7.51805, 1.88721],
					"position": [-0.1, 0, 0]
				},
				"shoulder_left": {
					"rotation": [0, "5*math.cos(q.anim_time*90*2)", 0]
				},
				"shoulder_right": {
					"rotation": [0, "5*math.cos(q.anim_time*90*2)", 0]
				},
				"fbody": {
					"position": {
						"0.0": [0, -0.25, 4],
						"0.5": [0, -0.25, 4],
						"0.5417": [0, -0.85, 4],
						"0.5833": [0, -0.35, 4],
						"0.625": [0, -0.85, 4],
						"0.7083": [0, -0.45, 4],
						"0.8333": [0, -0.25, 4],
						"1.5": [0, -0.25, 4],
						"1.5417": [0, -0.85, 4],
						"1.5833": [0, -0.35, 4],
						"1.625": [0, -0.85, 4],
						"1.7083": [0, -0.45, 4],
						"1.8333": [0, -0.25, 4],
						"2.5": [0, -0.25, 4],
						"2.5417": [0, -0.85, 4],
						"2.5833": [0, -0.35, 4],
						"2.625": [0, -0.85, 4],
						"2.7083": [0, -0.45, 4],
						"2.8333": [0, -0.25, 4],
						"3.5": [0, -0.25, 4],
						"3.5417": [0, -0.85, 4],
						"3.5833": [0, -0.35, 4],
						"3.625": [0, -0.85, 4],
						"3.7083": [0, -0.45, 4],
						"3.8333": [0, -0.25, 4]
					}
				},
				"ftorso": {
					"rotation": ["1*math.sin(q.anim_time*90*1-50)", "20*math.sin(q.anim_time*90*2)", "-10*math.cos(q.anim_time*90*2)"],
					"position": [0, "0.8*math.sin(q.anim_time*90*4)", 0]
				},
				"fwaist": {
					"rotation": [12.5, "-5*math.sin(q.anim_time*90*2)", "10*math.cos(q.anim_time*90*2)"]
				},
				"fchest": {
					"rotation": ["5-2*math.sin(q.anim_time*90*1-90)", "-20*math.sin(q.anim_time*90*2)", "5*math.cos(q.anim_time*90*2)"]
				},
				"fshoulder_left": {
					"rotation": [0, "5*math.cos(q.anim_time*90*2)", 0]
				},
				"farm_left": {
					"rotation": {
						"0.0": {
							"post": [-29.57, 0, 0],
							"lerp_mode": "catmullrom"
						},
						"0.9583": {
							"post": [-17.56274, -4.76804, 1.50701],
							"lerp_mode": "catmullrom"
						},
						"1.375": {
							"post": [-37.5, 0, 0],
							"lerp_mode": "catmullrom"
						},
						"1.4583": {
							"post": [-14.94548, -1.29256, -4.83045],
							"lerp_mode": "catmullrom"
						},
						"2.0": {
							"post": [-29.57, 0, 0],
							"lerp_mode": "catmullrom"
						},
						"2.9583": {
							"post": [-17.56274, -4.76804, 1.50701],
							"lerp_mode": "catmullrom"
						},
						"3.375": {
							"post": [-37.5, 0, 0],
							"lerp_mode": "catmullrom"
						},
						"3.4583": {
							"post": [-14.94548, -1.29256, -4.83045],
							"lerp_mode": "catmullrom"
						},
						"4.0": {
							"post": [-29.57, 0, 0],
							"lerp_mode": "catmullrom"
						}
					},
					"position": {
						"0.0": [0, 0, 0],
						"0.5": [0, 0, 0],
						"1.5": [0, -0.5, 0],
						"1.5833": [0, -1.1, 0],
						"1.6667": [0, -0.1, 0],
						"1.7917": [0, -0.9, 0],
						"2.0": [0, 0, 0],
						"3.5": [0, -0.5, 0],
						"3.5833": [0, -1.1, 0],
						"3.6667": [0, -0.1, 0],
						"3.7917": [0, -0.9, 0],
						"4.0": [0, 0, 0]
					}
				},
				"farm_left_rotation": {
					"rotation": ["-7.4286+2*math.sin(q.anim_time*90*1-90)", "7.512-10*math.sin(q.anim_time*90*2)", -0.4682],
					"position": [0, "-0.3+0.3*math.sin(q.anim_time*90*1)", 0]
				},
				"farm_left2": {
					"rotation": [-2.79803, "56.8038+10*math.sin(q.anim_time*90*2)", -1.34444]
				},
				"fwrist_left": {
					"rotation": {
						"0.0": [5.98477, 16.021, "2.1297+10*math.sin(q.anim_time*90*2)"],
						"1.5": [3.04, 16.81, "-8.2641+10*math.sin(q.anim_time*90*2)"],
						"2.0": [5.98477, 16.021, "2.1297+10*math.sin(q.anim_time*90*2)"],
						"3.5": [3.04, 16.81, "-8.2641+10*math.sin(q.anim_time*90*2)"],
						"4.0": [5.98477, 16.021, "2.1297+10*math.sin(q.anim_time*90*2)"]
					}
				},
				"fhand_left": {
					"rotation": {
						"0.0": ["-3.243-1*math.sin(q.anim_time*90*1-90)", 1.99504, "-1.8136+10*math.cos(q.anim_time*90*2)"],
						"0.7083": ["-13.0498-1*math.sin(q.anim_time*90*1-90)", 2.80836, "3.1032+10*math.cos(q.anim_time*90*2)"],
						"1.375": [-4.46295, 3.63573, 12.59313],
						"1.5": ["-3.2436-1*math.sin(q.anim_time*90*1-90)", 2, "-1.8141+10*math.cos(q.anim_time*90*2)"],
						"2.0": ["-3.243-1*math.sin(q.anim_time*90*1-90)", 1.99504, "-1.8136+10*math.cos(q.anim_time*90*2)"],
						"2.7083": ["-13.0498-1*math.sin(q.anim_time*90*1-90)", 2.80836, "3.1032+10*math.cos(q.anim_time*90*2)"],
						"3.375": [-4.46295, 3.63573, 12.59313],
						"3.5": ["-3.2436-1*math.sin(q.anim_time*90*1-90)", 2, "-1.8141+10*math.cos(q.anim_time*90*2)"],
						"4.0": ["-3.243-1*math.sin(q.anim_time*90*1-90)", 1.99504, "-1.8136+10*math.cos(q.anim_time*90*2)"]
					}
				},
				"pillar_disconnected_left": {
					"rotation": [-0.08508, -0.64686, 14.98637],
					"position": [-0.27434, 9.83489, -0.09301]
				},
				"shoulder_right2": {
					"rotation": [0, "5*math.cos(q.anim_time*90*2)", 0]
				},
				"farm_right": {
					"rotation": {
						"0.0": {
							"post": [-17.56274, 4.76804, -1.50701],
							"lerp_mode": "catmullrom"
						},
						"0.4167": {
							"post": [-37.5, 0, 0],
							"lerp_mode": "catmullrom"
						},
						"0.5": {
							"post": [-14.94548, 1.29256, 4.83045],
							"lerp_mode": "catmullrom"
						},
						"1.0417": {
							"post": [-29.57, 0, 0],
							"lerp_mode": "catmullrom"
						},
						"2.0": {
							"post": [-10, 0, 0],
							"lerp_mode": "catmullrom"
						},
						"2.4167": {
							"post": [-37.5, 0, 0],
							"lerp_mode": "catmullrom"
						},
						"2.5": {
							"post": [-14.94548, 1.29256, 4.83045],
							"lerp_mode": "catmullrom"
						},
						"3.0417": {
							"post": [-29.57, 0, 0],
							"lerp_mode": "catmullrom"
						},
						"4.0": {
							"post": [-17.56274, 4.76804, -1.50701],
							"lerp_mode": "catmullrom"
						}
					},
					"position": {
						"0.0": [0, 0, 0],
						"0.5": [0, -0.5, 0],
						"0.5833": [0, -1.1, 0],
						"0.6667": [0, -0.1, 0],
						"0.7917": [0, -0.9, 0],
						"1.0417": [0, 0, 0],
						"2.5": [0, -0.5, 0],
						"2.5833": [0, -1.1, 0],
						"2.6667": [0, -0.1, 0],
						"2.7917": [0, -0.9, 0],
						"3.0417": [0, 0, 0],
						"4.0": [0, 0, 0]
					}
				},
				"farm_right_rotation": {
					"rotation": ["-7.4286+2*math.sin(q.anim_time*90*1-90)", "-7.512-10*math.sin(q.anim_time*90*2)", 0.4682],
					"position": [0, "-0.3+0.3*math.sin(q.anim_time*90*1)", 0]
				},
				"farm_right2": {
					"rotation": [-2.79803, "-56.8038+10*math.sin(q.anim_time*90*2)", 1.34444]
				},
				"fwrist_right": {
					"rotation": {
						"0.0": [4.02, -16.55, 4.8],
						"0.5": [3.04, -16.81, "8.2641+10*math.sin(q.anim_time*90*2)"],
						"1.0": [5.98477, -16.021, "-2.1297+10*math.sin(q.anim_time*90*2)"],
						"2.0": [4.02, -16.55, 4.8],
						"2.5": [3.04, -16.81, "8.2641+10*math.sin(q.anim_time*90*2)"],
						"3.0": [5.98477, -16.021, "-2.1297+10*math.sin(q.anim_time*90*2)"],
						"4.0": [4.02, -16.55, 4.8]
					}
				},
				"fhand_right": {
					"rotation": {
						"0.0": [-9.86, -3.17, -1.63],
						"0.375": [-5.17616, -2.99263, -3.65206],
						"0.5": ["-3.2436-1*math.sin(q.anim_time*90*1-90)", -2, "1.8141+10*math.cos(q.anim_time*90*2)"],
						"1.0": ["-3.243-1*math.sin(q.anim_time*90*1-90)", -1.99504, "1.8136+10*math.cos(q.anim_time*90*2)"],
						"1.7083": ["-13.0498-1*math.sin(q.anim_time*90*1-90)", -2.80836, "-3.1032+10*math.cos(q.anim_time*90*2)"],
						"2.0": [-9.86, -3.17, -1.63],
						"2.375": [-5.17616, -2.99263, -3.65206],
						"2.5": ["-3.2436-1*math.sin(q.anim_time*90*1-90)", -2, "1.8141+10*math.cos(q.anim_time*90*2)"],
						"3.0": ["-3.243-1*math.sin(q.anim_time*90*1-90)", -1.99504, "1.8136+10*math.cos(q.anim_time*90*2)"],
						"3.7083": ["-13.0498-1*math.sin(q.anim_time*90*1-90)", -2.80836, "-3.1032+10*math.cos(q.anim_time*90*2)"],
						"4.0": [-9.86, -3.17, -1.63]
					}
				},
				"pillar_disconnected_right": {
					"rotation": [-0.08508, 0.64686, -14.98637],
					"position": [0.27434, 9.83489, -0.09301]
				}
			}
		},
		"animation.conkeldurr.battle_idle": {
			"loop": true,
			"animation_length": 4,
			"bones": {
				"waist": {
					"rotation": {
						"0.0": [12.5, 0, 0],
						"0.4167": [11, 0, 0],
						"0.5833": [12.5, 0, 0],
						"1.0": [12.5, 0, 0],
						"1.4167": [11, 0, 0],
						"1.5833": [12.5, 0, 0],
						"2.0": [12.5, 0, 0],
						"2.4167": [11, 0, 0],
						"2.5833": [12.5, 0, 0],
						"3.0": [12.5, 0, 0],
						"3.4167": [11, 0, 0],
						"3.5833": [12.5, 0, 0],
						"4.0": [12.5, 0, 0]
					},
					"position": {
						"0.0": [0, 0, 0],
						"0.5": [0, 0, 0],
						"0.625": [0, 0, 0],
						"0.6667": [0, -0.29878, -0.02705],
						"0.7083": [0, -0.00125, -0.00261],
						"0.75": [0, -0.19914, -0.01848],
						"0.8333": [0, -0.10045, -0.01055],
						"0.875": [0, 0, 0],
						"1.5": [0, 0, 0],
						"1.625": [0, 0, 0],
						"1.6667": [0, -0.29878, -0.02705],
						"1.7083": [0, -0.00125, -0.00261],
						"1.75": [0, -0.19914, -0.01848],
						"1.8333": [0, -0.10045, -0.01055],
						"1.875": [0, 0, 0],
						"2.5": [0, 0, 0],
						"2.625": [0, 0, 0],
						"2.6667": [0, -0.29878, -0.02705],
						"2.7083": [0, -0.00125, -0.00261],
						"2.75": [0, -0.19914, -0.01848],
						"2.8333": [0, -0.10045, -0.01055],
						"2.875": [0, 0, 0],
						"3.5": [0, 0, 0],
						"3.625": [0, 0, 0],
						"3.6667": [0, -0.29878, -0.02705],
						"3.7083": [0, -0.00125, -0.00261],
						"3.75": [0, -0.19914, -0.01848],
						"3.8333": [0, -0.10045, -0.01055],
						"3.875": [0, 0, 0],
						"4.0": [0, 0, 0]
					}
				},
				"chest": {
					"rotation": [5, 0, "1*math.sin(q.anim_time*90*2-50)"]
				},
				"arm_left": {
					"rotation": {
						"0.0": [-21.18, 0, 0],
						"0.3333": [-20, 0, 0],
						"1.0": [-22.5, 0, 0],
						"1.5417": [-37.5, 0, 0],
						"1.625": [-22.5, 0, 0],
						"1.75": [-25, 0, 0],
						"1.7917": [-22.5, 0, 0],
						"2.3333": [-20, 0, 0],
						"3.0": [-22.5, 0, 0],
						"3.5417": [-37.5, 0, 0],
						"3.625": [-22.5, 0, 0],
						"3.75": [-25, 0, 0],
						"3.7917": [-22.5, 0, 0],
						"4.0": [-21.18, 0, 0]
					},
					"position": {
						"0.0": {
							"post": [0, -0.28, 1.1],
							"lerp_mode": "catmullrom"
						},
						"0.2917": {
							"post": [0, -0.48, 1.1],
							"lerp_mode": "catmullrom"
						},
						"0.4167": {
							"post": [0, -0.78, 1.1],
							"lerp_mode": "catmullrom"
						},
						"0.5833": {
							"post": [0, -0.48, 1.1],
							"lerp_mode": "catmullrom"
						},
						"1.0": {
							"post": [0, -0.48299, 1.09851],
							"lerp_mode": "catmullrom"
						},
						"1.7083": {
							"post": [0, -0.16, 1.1],
							"lerp_mode": "catmullrom"
						},
						"2.2917": {
							"post": [0, -0.48, 1.1],
							"lerp_mode": "catmullrom"
						},
						"2.4167": {
							"post": [0, -0.78, 1.1],
							"lerp_mode": "catmullrom"
						},
						"2.5833": {
							"post": [0, -0.48, 1.1],
							"lerp_mode": "catmullrom"
						},
						"3.0": {
							"post": [0, -0.48299, 1.09851],
							"lerp_mode": "catmullrom"
						},
						"3.7083": {
							"post": [0, -0.16, 1.1],
							"lerp_mode": "catmullrom"
						},
						"4.0": {
							"post": [0, -0.28, 1.1],
							"lerp_mode": "catmullrom"
						}
					}
				},
				"arm_left_rotation": {
					"rotation": {
						"0.0": [-8.11, 22.3, -3.09],
						"1.0": [-8.11, 22.29711, -3.0947],
						"4.0": [-8.11, 22.3, -3.09]
					},
					"position": {
						"0.0": [0, -0.3, 0],
						"1.0": [0, -0.3, 0],
						"4.0": [0, -0.3, 0]
					}
				},
				"arm_left2": {
					"rotation": {
						"0.0": [-2.06, 41.82, -0.37],
						"1.0": [-2.05515, 41.81681, -0.37309],
						"1.4167": [-2.06, 41.82, -0.37],
						"1.5417": [-2.71417, 44.12157, 0.03483],
						"1.625": [-2.06, 41.82, -0.37],
						"3.0": [-2.05515, 41.81681, -0.37309],
						"3.4167": [-2.06, 41.82, -0.37],
						"3.5417": [-2.71417, 44.12157, 0.03483],
						"3.625": [-2.06, 41.82, -0.37],
						"4.0": [-2.06, 41.82, -0.37]
					}
				},
				"wrist_left": {
					"rotation": {
						"0.0": [3.79, 16.66, -5.66],
						"1.0": [3.78694, 16.66104, -5.65814],
						"4.0": [3.79, 16.66, -5.66]
					}
				},
				"hand_left": {
					"rotation": {
						"0.0": {
							"post": [-2.7, 1.97, -1.81],
							"lerp_mode": "catmullrom"
						},
						"0.4167": {
							"post": [-2.37162, 1.91065, -2.90646],
							"lerp_mode": "catmullrom"
						},
						"1.0": {
							"post": [-2.2436, 2.00248, -0.8141],
							"lerp_mode": "catmullrom"
						},
						"1.4167": {
							"post": [-5.82105, 2.61738, 8.89275],
							"lerp_mode": "catmullrom"
						},
						"1.5417": {
							"post": [-1.08407, 2.46309, 7.7685],
							"lerp_mode": "catmullrom"
						},
						"1.625": {
							"post": [-2.68803, 2.00248, -1.25853],
							"lerp_mode": "catmullrom"
						},
						"1.7083": {
							"post": [-2.81, 1.98, 0.8],
							"lerp_mode": "catmullrom"
						},
						"1.7917": {
							"post": [-2.68803, 2.00248, -1.25853],
							"lerp_mode": "catmullrom"
						},
						"2.4167": {
							"post": [-2.37162, 1.91065, -2.90646],
							"lerp_mode": "catmullrom"
						},
						"3.0": {
							"post": [-2.2436, 2.00248, -0.8141],
							"lerp_mode": "catmullrom"
						},
						"3.4167": {
							"post": [-5.82105, 2.61738, 8.89275],
							"lerp_mode": "catmullrom"
						},
						"3.5417": {
							"post": [-1.08407, 2.46309, 7.7685],
							"lerp_mode": "catmullrom"
						},
						"3.625": {
							"post": [-2.68803, 2.00248, -1.25853],
							"lerp_mode": "catmullrom"
						},
						"3.7083": {
							"post": [-2.81, 1.98, 0.8],
							"lerp_mode": "catmullrom"
						},
						"3.7917": {
							"post": [-2.68803, 2.00248, -1.25853],
							"lerp_mode": "catmullrom"
						},
						"4.0": {
							"post": [-2.7, 1.97, -1.81],
							"lerp_mode": "catmullrom"
						}
					}
				},
				"finger_back_left2": {
					"rotation": [0, 0, -47.5]
				},
				"finger_middle_left": {
					"rotation": [1.58359, 9.85909, 13.19897],
					"position": [-0.2, 0, 0]
				},
				"finger_middle_left2": {
					"rotation": [0, 0, -40]
				},
				"thumb_left": {
					"rotation": [17.52917, 24.29351, 98.93199],
					"position": [0.96755, 1.32986, -0.12401]
				},
				"thumb_left2": {
					"rotation": [0, -54.8742, 0]
				},
				"leg_left": {
					"rotation": {
						"0.0": [3.35927, -17.05915, -15.64644],
						"0.25": {
							"pre": [3.35927, -17.05915, -15.64644],
							"post": [3.35927, -17.05915, -15.64644],
							"lerp_mode": "catmullrom"
						},
						"0.4583": {
							"post": [13.35927, -17.05915, -15.64644],
							"lerp_mode": "catmullrom"
						},
						"0.625": [3.35927, -17.05915, -15.64644],
						"2.0": [3.35927, -17.05915, -15.64644],
						"2.25": {
							"pre": [3.35927, -17.05915, -15.64644],
							"post": [3.35927, -17.05915, -15.64644],
							"lerp_mode": "catmullrom"
						},
						"2.4583": {
							"post": [13.35927, -17.05915, -15.64644],
							"lerp_mode": "catmullrom"
						},
						"2.625": [3.35927, -17.05915, -15.64644]
					},
					"position": {
						"0.0": [0, 0, -1],
						"0.25": {
							"pre": [0, 0, -1],
							"post": [0, 0, -1],
							"lerp_mode": "catmullrom"
						},
						"0.5417": {
							"post": [0, 1.5, -1.5],
							"lerp_mode": "catmullrom"
						},
						"0.6667": [0, 0, -1],
						"2.0": [0, 0, -1],
						"2.25": {
							"pre": [0, 0, -1],
							"post": [0, 0, -1],
							"lerp_mode": "catmullrom"
						},
						"2.5417": {
							"post": [0, 1.5, -1.5],
							"lerp_mode": "catmullrom"
						},
						"2.6667": [0, 0, -1]
					}
				},
				"foot_left": {
					"rotation": {
						"0.0": [0.73437, -12.64067, 5.47342],
						"0.375": [0.73437, -12.64067, 5.47342],
						"0.5": [-6.76563, -12.64067, 5.47342],
						"0.625": [-11.76563, -12.64067, 5.47342],
						"0.6667": [0.73437, -12.64067, 5.47342],
						"2.0": [0.73437, -12.64067, 5.47342],
						"2.375": [0.73437, -12.64067, 5.47342],
						"2.5": [-6.76563, -12.64067, 5.47342],
						"2.625": [-11.76563, -12.64067, 5.47342],
						"2.6667": [0.73437, -12.64067, 5.47342]
					}
				},
				"leg_right": {
					"rotation": {
						"0.0": [3.35927, 17.05915, 15.64644],
						"1.0": [3.35927, 17.05915, 15.64644],
						"1.25": {
							"pre": [3.35927, 17.05915, 15.64644],
							"post": [3.35927, 17.05915, 15.64644],
							"lerp_mode": "catmullrom"
						},
						"1.4583": {
							"post": [13.35927, 17.05915, 15.64644],
							"lerp_mode": "catmullrom"
						},
						"1.625": [3.35927, 17.05915, 15.64644],
						"3.0": [3.35927, 17.05915, 15.64644],
						"3.25": {
							"pre": [3.35927, 17.05915, 15.64644],
							"post": [3.35927, 17.05915, 15.64644],
							"lerp_mode": "catmullrom"
						},
						"3.4583": {
							"post": [13.35927, 17.05915, 15.64644],
							"lerp_mode": "catmullrom"
						},
						"3.625": [3.35927, 17.05915, 15.64644]
					},
					"position": {
						"0.0": [0, 0, -1],
						"1.0": [0, 0, -1],
						"1.25": {
							"pre": [0, 0, -1],
							"post": [0, 0, -1],
							"lerp_mode": "catmullrom"
						},
						"1.5417": {
							"post": [0, 1.5, -1.5],
							"lerp_mode": "catmullrom"
						},
						"1.6667": [0, 0, -1],
						"3.0": [0, 0, -1],
						"3.25": {
							"pre": [0, 0, -1],
							"post": [0, 0, -1],
							"lerp_mode": "catmullrom"
						},
						"3.5417": {
							"post": [0, 1.5, -1.5],
							"lerp_mode": "catmullrom"
						},
						"3.6667": [0, 0, -1]
					}
				},
				"foot_right": {
					"rotation": {
						"0.0": [0.73437, 12.64067, -5.47342],
						"1.0": [0.73437, 12.64067, -5.47342],
						"1.375": [0.73437, 12.64067, -5.47342],
						"1.5": [-6.76563, 12.64067, -5.47342],
						"1.625": [-11.76563, 12.64067, -5.47342],
						"1.6667": [0.73437, 12.64067, -5.47342],
						"3.0": [0.73437, 12.64067, -5.47342],
						"3.375": [0.73437, 12.64067, -5.47342],
						"3.5": [-6.76563, 12.64067, -5.47342],
						"3.625": [-11.76563, 12.64067, -5.47342],
						"3.6667": [0.73437, 12.64067, -5.47342]
					}
				},
				"pillar_connected_left": {
					"rotation": [-0.08508, -0.64686, 14.98637],
					"position": [-0.27434, 9.83489, -0.09301]
				},
				"arm_right": {
					"rotation": {
						"0.0": [-22.5, 0, 0],
						"0.5417": [-37.5, 0, 0],
						"0.625": [-22.5, 0, 0],
						"0.75": [-25, 0, 0],
						"0.7917": [-22.5, 0, 0],
						"1.3333": [-20, 0, 0],
						"2.0": [-22.5, 0, 0],
						"2.5417": [-37.5, 0, 0],
						"2.625": [-22.5, 0, 0],
						"2.75": [-25, 0, 0],
						"2.7917": [-22.5, 0, 0],
						"3.3333": [-20, 0, 0],
						"4.0": [-22.5, 0, 0]
					},
					"position": {
						"0.0": {
							"post": [0, -0.48299, 1.09851],
							"lerp_mode": "catmullrom"
						},
						"0.7083": {
							"post": [0, -0.16, 1.1],
							"lerp_mode": "catmullrom"
						},
						"1.2917": {
							"post": [0, -0.48, 1.1],
							"lerp_mode": "catmullrom"
						},
						"1.4167": {
							"post": [0, -0.78, 1.1],
							"lerp_mode": "catmullrom"
						},
						"1.5833": {
							"post": [0, -0.48, 1.1],
							"lerp_mode": "catmullrom"
						},
						"2.0": {
							"post": [0, -0.48299, 1.09851],
							"lerp_mode": "catmullrom"
						},
						"2.7083": {
							"post": [0, -0.16, 1.1],
							"lerp_mode": "catmullrom"
						},
						"3.2917": {
							"post": [0, -0.48, 1.1],
							"lerp_mode": "catmullrom"
						},
						"3.4167": {
							"post": [0, -0.78, 1.1],
							"lerp_mode": "catmullrom"
						},
						"3.5833": {
							"post": [0, -0.48, 1.1],
							"lerp_mode": "catmullrom"
						},
						"4.0": {
							"post": [0, -0.48299, 1.09851],
							"lerp_mode": "catmullrom"
						}
					}
				},
				"arm_right_rotation": {
					"rotation": [-8.11, -22.29711, 3.0947],
					"position": [0, -0.3, 0]
				},
				"arm_right2": {
					"rotation": {
						"0.0": [-2.05515, -41.81681, 0.37309],
						"0.4167": [-2.06, -41.82, 0.37],
						"0.5417": [-2.71417, -44.12157, -0.03483],
						"0.625": [-2.06, -41.82, 0.37],
						"2.0": [-2.05515, -41.81681, 0.37309],
						"2.4167": [-2.06, -41.82, 0.37],
						"2.5417": [-2.71417, -44.12157, -0.03483],
						"2.625": [-2.06, -41.82, 0.37]
					}
				},
				"wrist_right": {
					"rotation": [3.78694, -16.66104, 5.65814]
				},
				"hand_right": {
					"rotation": {
						"0.0": {
							"post": [-2.2436, -2.00248, 0.8141],
							"lerp_mode": "catmullrom"
						},
						"0.4167": {
							"post": [-5.82105, -2.61738, -8.89275],
							"lerp_mode": "catmullrom"
						},
						"0.5417": {
							"post": [-1.08407, -2.46309, -7.7685],
							"lerp_mode": "catmullrom"
						},
						"0.625": {
							"post": [-2.68803, -2.00248, 1.25853],
							"lerp_mode": "catmullrom"
						},
						"0.7083": {
							"post": [-2.81, -1.98, -0.8],
							"lerp_mode": "catmullrom"
						},
						"0.7917": {
							"post": [-2.68803, -2.00248, 1.25853],
							"lerp_mode": "catmullrom"
						},
						"1.4167": {
							"post": [-2.28889, -1.89573, 3.14447],
							"lerp_mode": "catmullrom"
						},
						"2.0": {
							"post": [-2.2436, -2.00248, 0.8141],
							"lerp_mode": "catmullrom"
						},
						"2.4167": {
							"post": [-5.82105, -2.61738, -8.89275],
							"lerp_mode": "catmullrom"
						},
						"2.5417": {
							"post": [-1.08407, -2.46309, -7.7685],
							"lerp_mode": "catmullrom"
						},
						"2.625": {
							"post": [-2.68803, -2.00248, 1.25853],
							"lerp_mode": "catmullrom"
						},
						"2.7083": {
							"post": [-2.81, -1.98, -0.8],
							"lerp_mode": "catmullrom"
						},
						"2.7917": {
							"post": [-2.68803, -2.00248, 1.25853],
							"lerp_mode": "catmullrom"
						},
						"3.4167": {
							"post": [-2.28889, -1.89573, 3.14447],
							"lerp_mode": "catmullrom"
						},
						"4.0": {
							"post": [-2.2436, -2.00248, 0.8141],
							"lerp_mode": "catmullrom"
						}
					}
				},
				"finger_back_right": {
					"rotation": [-0.18878, 7.60143, -11.97477],
					"position": [0.1, 0, 0]
				},
				"finger_back_right2": {
					"rotation": [0, 0, 47.5]
				},
				"finger_middle_right": {
					"rotation": [1.58359, -9.85909, -13.19897],
					"position": [0.2, 0, 0]
				},
				"finger_middle_right2": {
					"rotation": [0, 0, 40]
				},
				"thumb_right": {
					"rotation": [17.52917, -24.29351, -98.93199],
					"position": [-0.96755, 1.32986, -0.12401]
				},
				"thumb_right2": {
					"rotation": [0, 54.8742, 0]
				},
				"pillar_connected_right": {
					"rotation": [-0.08508, 0.64686, -14.98637],
					"position": [0.27434, 9.83489, -0.09301]
				},
				"head": {
					"rotation": ["-10+2*math.sin(q.anim_time*90*4-90)", 0, 0],
					"position": [0, 0.28174, -0.6408]
				},
				"hair": {
					"rotation": ["-10-2*math.sin(q.anim_time*90*4-130)", 0, 0]
				},
				"hair2": {
					"rotation": [-12.5, 0, 0]
				},
				"body": {
					"position": [0, -0.25, 4]
				},
				"leg_left2": {
					"rotation": [0, 0, 10]
				},
				"leg_right2": {
					"rotation": [0, 0, -10]
				},
				"torso": {
					"rotation": [5, 0, "-1*math.sin(q.anim_time*90*2-50)"],
					"position": [0, "0.1*math.sin(q.anim_time*90*4)", 0]
				},
				"finger_back_left": {
					"rotation": [-0.18878, -7.60143, 11.97477],
					"position": [-0.1, 0, 0]
				},
				"shoulder_left": {
					"rotation": {
						"0.0": [0, 0, 0],
						"1.0": [0, 0, 0],
						"1.5": [0.07867, -1.95774, -4.60169],
						"1.6667": [0, 0, 0],
						"3.0": [0, 0, 0],
						"3.5": [0.07867, -1.95774, -4.60169],
						"3.6667": [0, 0, 0],
						"4.0": [0, 0, 0]
					}
				},
				"shoulder_right": {
					"rotation": {
						"0.0": [0, 0, 0],
						"0.4583": [0.07867, 1.95774, 4.60169],
						"0.6667": [0, 0, 0],
						"2.0": [0, 0, 0],
						"2.5": [0.07867, 1.95774, 4.60169],
						"2.6667": [0, 0, 0]
					}
				},
				"mouth_closed": {
					"position": [0, -0.01983, 0.09801]
				},
				"mouth_frown": {
					"position": [0, 0.01983, -0.09801]
				},
				"eye_left": {
					"rotation": [0, 0, -5],
					"position": [-0.1, 0.2, 0]
				},
				"eye_right": {
					"rotation": [0, 0, 5],
					"position": [0.1, 0.2, 0]
				},
				"pillar_disconnected_right": {
					"rotation": [-0.08508, 0.64686, -14.98637],
					"position": [0.27434, 9.83489, -0.09301]
				},
				"fhand_right": {
					"rotation": {
						"0.0": {
							"post": [-2.2436, -2.00248, 0.8141],
							"lerp_mode": "catmullrom"
						},
						"0.4167": {
							"post": [-5.82105, -2.61738, -8.89275],
							"lerp_mode": "catmullrom"
						},
						"0.5417": {
							"post": [-1.08407, -2.46309, -7.7685],
							"lerp_mode": "catmullrom"
						},
						"0.625": {
							"post": [-2.68803, -2.00248, 1.25853],
							"lerp_mode": "catmullrom"
						},
						"0.7083": {
							"post": [-2.81, -1.98, -0.8],
							"lerp_mode": "catmullrom"
						},
						"0.7917": {
							"post": [-2.68803, -2.00248, 1.25853],
							"lerp_mode": "catmullrom"
						},
						"1.4167": {
							"post": [-2.28889, -1.89573, 3.14447],
							"lerp_mode": "catmullrom"
						},
						"2.0": {
							"post": [-2.2436, -2.00248, 0.8141],
							"lerp_mode": "catmullrom"
						},
						"2.4167": {
							"post": [-5.82105, -2.61738, -8.89275],
							"lerp_mode": "catmullrom"
						},
						"2.5417": {
							"post": [-1.08407, -2.46309, -7.7685],
							"lerp_mode": "catmullrom"
						},
						"2.625": {
							"post": [-2.68803, -2.00248, 1.25853],
							"lerp_mode": "catmullrom"
						},
						"2.7083": {
							"post": [-2.81, -1.98, -0.8],
							"lerp_mode": "catmullrom"
						},
						"2.7917": {
							"post": [-2.68803, -2.00248, 1.25853],
							"lerp_mode": "catmullrom"
						},
						"3.4167": {
							"post": [-2.28889, -1.89573, 3.14447],
							"lerp_mode": "catmullrom"
						},
						"4.0": {
							"post": [-2.2436, -2.00248, 0.8141],
							"lerp_mode": "catmullrom"
						}
					}
				},
				"fwrist_right": {
					"rotation": [3.78694, -16.66104, 5.65814]
				},
				"farm_right2": {
					"rotation": {
						"0.0": [-2.05515, -41.81681, 0.37309],
						"0.4167": [-2.06, -41.82, 0.37],
						"0.5417": [-2.71417, -44.12157, -0.03483],
						"0.625": [-2.06, -41.82, 0.37],
						"2.0": [-2.05515, -41.81681, 0.37309],
						"2.4167": [-2.06, -41.82, 0.37],
						"2.5417": [-2.71417, -44.12157, -0.03483],
						"2.625": [-2.06, -41.82, 0.37]
					}
				},
				"farm_right_rotation": {
					"rotation": [-8.11, -22.29711, 3.0947],
					"position": [0, -0.3, 0]
				},
				"farm_right": {
					"rotation": {
						"0.0": [-22.5, 0, 0],
						"0.5417": [-37.5, 0, 0],
						"0.625": [-22.5, 0, 0],
						"0.75": [-25, 0, 0],
						"0.7917": [-22.5, 0, 0],
						"1.3333": [-20, 0, 0],
						"2.0": [-22.5, 0, 0],
						"2.5417": [-37.5, 0, 0],
						"2.625": [-22.5, 0, 0],
						"2.75": [-25, 0, 0],
						"2.7917": [-22.5, 0, 0],
						"3.3333": [-20, 0, 0],
						"4.0": [-22.5, 0, 0]
					},
					"position": {
						"0.0": {
							"post": [0, -0.48299, 1.09851],
							"lerp_mode": "catmullrom"
						},
						"0.7083": {
							"post": [0, -0.16, 1.1],
							"lerp_mode": "catmullrom"
						},
						"1.2917": {
							"post": [0, -0.48, 1.1],
							"lerp_mode": "catmullrom"
						},
						"1.4167": {
							"post": [0, -0.78, 1.1],
							"lerp_mode": "catmullrom"
						},
						"1.5833": {
							"post": [0, -0.48, 1.1],
							"lerp_mode": "catmullrom"
						},
						"2.0": {
							"post": [0, -0.48299, 1.09851],
							"lerp_mode": "catmullrom"
						},
						"2.7083": {
							"post": [0, -0.16, 1.1],
							"lerp_mode": "catmullrom"
						},
						"3.2917": {
							"post": [0, -0.48, 1.1],
							"lerp_mode": "catmullrom"
						},
						"3.4167": {
							"post": [0, -0.78, 1.1],
							"lerp_mode": "catmullrom"
						},
						"3.5833": {
							"post": [0, -0.48, 1.1],
							"lerp_mode": "catmullrom"
						},
						"4.0": {
							"post": [0, -0.48299, 1.09851],
							"lerp_mode": "catmullrom"
						}
					}
				},
				"shoulder_right2": {
					"rotation": {
						"0.0": [0, 0, 0],
						"0.4583": [0.07867, 1.95774, 4.60169],
						"0.6667": [0, 0, 0],
						"2.0": [0, 0, 0],
						"2.5": [0.07867, 1.95774, 4.60169],
						"2.6667": [0, 0, 0]
					}
				},
				"fchest": {
					"rotation": [5, 0, "1*math.sin(q.anim_time*90*2-50)"]
				},
				"fwaist": {
					"rotation": {
						"0.0": [12.5, 0, 0],
						"0.4167": [11, 0, 0],
						"0.5833": [12.5, 0, 0],
						"1.0": [12.5, 0, 0],
						"1.4167": [11, 0, 0],
						"1.5833": [12.5, 0, 0],
						"2.0": [12.5, 0, 0],
						"2.4167": [11, 0, 0],
						"2.5833": [12.5, 0, 0],
						"3.0": [12.5, 0, 0],
						"3.4167": [11, 0, 0],
						"3.5833": [12.5, 0, 0],
						"4.0": [12.5, 0, 0]
					},
					"position": {
						"0.0": [0, 0, 0],
						"0.5": [0, 0, 0],
						"0.625": [0, 0, 0],
						"0.6667": [0, -0.29878, -0.02705],
						"0.7083": [0, -0.00125, -0.00261],
						"0.75": [0, -0.19914, -0.01848],
						"0.8333": [0, -0.10045, -0.01055],
						"0.875": [0, 0, 0],
						"1.5": [0, 0, 0],
						"1.625": [0, 0, 0],
						"1.6667": [0, -0.29878, -0.02705],
						"1.7083": [0, -0.00125, -0.00261],
						"1.75": [0, -0.19914, -0.01848],
						"1.8333": [0, -0.10045, -0.01055],
						"1.875": [0, 0, 0],
						"2.5": [0, 0, 0],
						"2.625": [0, 0, 0],
						"2.6667": [0, -0.29878, -0.02705],
						"2.7083": [0, -0.00125, -0.00261],
						"2.75": [0, -0.19914, -0.01848],
						"2.8333": [0, -0.10045, -0.01055],
						"2.875": [0, 0, 0],
						"3.5": [0, 0, 0],
						"3.625": [0, 0, 0],
						"3.6667": [0, -0.29878, -0.02705],
						"3.7083": [0, -0.00125, -0.00261],
						"3.75": [0, -0.19914, -0.01848],
						"3.8333": [0, -0.10045, -0.01055],
						"3.875": [0, 0, 0],
						"4.0": [0, 0, 0]
					}
				},
				"ftorso": {
					"rotation": [5, 0, "-1*math.sin(q.anim_time*90*2-50)"],
					"position": [0, "0.1*math.sin(q.anim_time*90*4)", 0]
				},
				"fbody": {
					"position": [0, -0.25, 4]
				},
				"fshoulder_left": {
					"rotation": {
						"0.0": [0, 0, 0],
						"1.0": [0, 0, 0],
						"1.5": [0.07867, -1.95774, -4.60169],
						"1.6667": [0, 0, 0],
						"3.0": [0, 0, 0],
						"3.5": [0.07867, -1.95774, -4.60169],
						"3.6667": [0, 0, 0],
						"4.0": [0, 0, 0]
					}
				},
				"farm_left": {
					"rotation": {
						"0.0": [-21.18, 0, 0],
						"0.3333": [-20, 0, 0],
						"1.0": [-22.5, 0, 0],
						"1.5417": [-37.5, 0, 0],
						"1.625": [-22.5, 0, 0],
						"1.75": [-25, 0, 0],
						"1.7917": [-22.5, 0, 0],
						"2.3333": [-20, 0, 0],
						"3.0": [-22.5, 0, 0],
						"3.5417": [-37.5, 0, 0],
						"3.625": [-22.5, 0, 0],
						"3.75": [-25, 0, 0],
						"3.7917": [-22.5, 0, 0],
						"4.0": [-21.18, 0, 0]
					},
					"position": {
						"0.0": {
							"post": [0, -0.28, 1.1],
							"lerp_mode": "catmullrom"
						},
						"0.2917": {
							"post": [0, -0.48, 1.1],
							"lerp_mode": "catmullrom"
						},
						"0.4167": {
							"post": [0, -0.78, 1.1],
							"lerp_mode": "catmullrom"
						},
						"0.5833": {
							"post": [0, -0.48, 1.1],
							"lerp_mode": "catmullrom"
						},
						"1.0": {
							"post": [0, -0.48299, 1.09851],
							"lerp_mode": "catmullrom"
						},
						"1.7083": {
							"post": [0, -0.16, 1.1],
							"lerp_mode": "catmullrom"
						},
						"2.2917": {
							"post": [0, -0.48, 1.1],
							"lerp_mode": "catmullrom"
						},
						"2.4167": {
							"post": [0, -0.78, 1.1],
							"lerp_mode": "catmullrom"
						},
						"2.5833": {
							"post": [0, -0.48, 1.1],
							"lerp_mode": "catmullrom"
						},
						"3.0": {
							"post": [0, -0.48299, 1.09851],
							"lerp_mode": "catmullrom"
						},
						"3.7083": {
							"post": [0, -0.16, 1.1],
							"lerp_mode": "catmullrom"
						},
						"4.0": {
							"post": [0, -0.28, 1.1],
							"lerp_mode": "catmullrom"
						}
					}
				},
				"farm_left_rotation": {
					"rotation": {
						"0.0": [-8.11, 22.3, -3.09],
						"1.0": [-8.11, 22.29711, -3.0947],
						"4.0": [-8.11, 22.3, -3.09]
					},
					"position": {
						"0.0": [0, -0.3, 0],
						"1.0": [0, -0.3, 0],
						"4.0": [0, -0.3, 0]
					}
				},
				"farm_left2": {
					"rotation": {
						"0.0": [-2.06, 41.82, -0.37],
						"1.0": [-2.05515, 41.81681, -0.37309],
						"1.4167": [-2.06, 41.82, -0.37],
						"1.5417": [-2.71417, 44.12157, 0.03483],
						"1.625": [-2.06, 41.82, -0.37],
						"3.0": [-2.05515, 41.81681, -0.37309],
						"3.4167": [-2.06, 41.82, -0.37],
						"3.5417": [-2.71417, 44.12157, 0.03483],
						"3.625": [-2.06, 41.82, -0.37],
						"4.0": [-2.06, 41.82, -0.37]
					}
				},
				"fwrist_left": {
					"rotation": {
						"0.0": [3.79, 16.66, -5.66],
						"1.0": [3.78694, 16.66104, -5.65814],
						"4.0": [3.79, 16.66, -5.66]
					}
				},
				"fhand_left": {
					"rotation": {
						"0.0": {
							"post": [-2.7, 1.97, -1.81],
							"lerp_mode": "catmullrom"
						},
						"0.4167": {
							"post": [-2.37162, 1.91065, -2.90646],
							"lerp_mode": "catmullrom"
						},
						"1.0": {
							"post": [-2.2436, 2.00248, -0.8141],
							"lerp_mode": "catmullrom"
						},
						"1.4167": {
							"post": [-5.82105, 2.61738, 8.89275],
							"lerp_mode": "catmullrom"
						},
						"1.5417": {
							"post": [-1.08407, 2.46309, 7.7685],
							"lerp_mode": "catmullrom"
						},
						"1.625": {
							"post": [-2.68803, 2.00248, -1.25853],
							"lerp_mode": "catmullrom"
						},
						"1.7083": {
							"post": [-2.81, 1.98, 0.8],
							"lerp_mode": "catmullrom"
						},
						"1.7917": {
							"post": [-2.68803, 2.00248, -1.25853],
							"lerp_mode": "catmullrom"
						},
						"2.4167": {
							"post": [-2.37162, 1.91065, -2.90646],
							"lerp_mode": "catmullrom"
						},
						"3.0": {
							"post": [-2.2436, 2.00248, -0.8141],
							"lerp_mode": "catmullrom"
						},
						"3.4167": {
							"post": [-5.82105, 2.61738, 8.89275],
							"lerp_mode": "catmullrom"
						},
						"3.5417": {
							"post": [-1.08407, 2.46309, 7.7685],
							"lerp_mode": "catmullrom"
						},
						"3.625": {
							"post": [-2.68803, 2.00248, -1.25853],
							"lerp_mode": "catmullrom"
						},
						"3.7083": {
							"post": [-2.81, 1.98, 0.8],
							"lerp_mode": "catmullrom"
						},
						"3.7917": {
							"post": [-2.68803, 2.00248, -1.25853],
							"lerp_mode": "catmullrom"
						},
						"4.0": {
							"post": [-2.7, 1.97, -1.81],
							"lerp_mode": "catmullrom"
						}
					}
				},
				"pillar_disconnected_left": {
					"rotation": [-0.08508, -0.64686, 14.98637],
					"position": [-0.27434, 9.83489, -0.09301]
				}
			}
		},
		"animation.conkeldurr.blink": {
			"animation_length": 0.16667,
			"bones": {
				"eyelid_left": {
					"position": {
						"0.0": [0, 0, -0.1],
						"0.125": [0, 0, -0.1],
						"0.1667": [0, 0, 0]
					}
				},
				"eyelid_right": {
					"position": {
						"0.0": [0, 0, -0.1],
						"0.125": [0, 0, -0.1],
						"0.1667": [0, 0, 0]
					}
				}
			}
		},
		"animation.conkeldurr.cry": {
			"animation_length": 1.75,
			"bones": {
				"torso": {
					"rotation": {
						"0.0": {
							"post": [0, 0, 0],
							"lerp_mode": "catmullrom"
						},
						"0.5833": {
							"post": [-0.5, 0, 0],
							"lerp_mode": "catmullrom"
						},
						"1.625": {
							"post": [0, 0, 0],
							"lerp_mode": "catmullrom"
						}
					}
				},
				"head": {
					"rotation": {
						"0.0": {
							"post": [0, 0, 0],
							"lerp_mode": "catmullrom"
						},
						"0.1667": {
							"post": [10, 0, 0],
							"lerp_mode": "catmullrom"
						},
						"0.8333": {
							"post": [-7.5, 0, 0],
							"lerp_mode": "catmullrom"
						},
						"1.6667": {
							"post": [0, 0, 0],
							"lerp_mode": "catmullrom"
						}
					}
				},
				"mouth_closed": {
					"position": {
						"0.0": [0, 0, 0],
						"0.125": {"pre": [0, 0, 0], "post": [0, 0, 0]},
						"0.1667": {"pre": [0, 0, 0], "post": [0, -0.03059, 0.09521]},
						"1.375": {"pre": [0, -0.03059, 0.09521], "post": [0, -0.03059, 0.09521]},
						"1.4167": {"pre": [0, -0.03059, 0.09521], "post": [0, 0, 0]}
					}
				},
				"mouth_open": {
					"position": {
						"0.0": [0, 0, 0],
						"0.125": {"pre": [0, 0, 0], "post": [0, 0, 0]},
						"0.1667": {"pre": [0, 0, 0], "post": [0, 0.03059, -0.09521]},
						"1.375": {"pre": [0, 0.03059, -0.09521], "post": [0, 0.03059, -0.09521]},
						"1.4167": {"pre": [0, 0.03059, -0.09521], "post": [0, 0, 0]}
					}
				},
				"mouth_frown": {
					"position": {
						"0.0": [0, 0, 0],
						"0.125": {"pre": [0, 0, 0], "post": [0, 0, 0]},
						"0.1667": {"pre": [0, 0, 0], "post": [0, -0.03059, 0.09521]},
						"1.375": {"pre": [0, -0.03059, 0.09521], "post": [0, -0.03059, 0.09521]},
						"1.4167": {"pre": [0, -0.03059, 0.09521], "post": [0, 0, 0]}
					}
				},
				"hand_left": {
					"rotation": {
						"0.0": {
							"post": [0, 0, 0],
							"lerp_mode": "catmullrom"
						},
						"0.5417": {
							"post": [0, 0, 2.5],
							"lerp_mode": "catmullrom"
						},
						"1.3333": {
							"post": [0, 0, 0],
							"lerp_mode": "catmullrom"
						}
					}
				},
				"hand_right": {
					"rotation": {
						"0.0": {
							"post": [0, 0, 0],
							"lerp_mode": "catmullrom"
						},
						"0.5417": {
							"post": [0, 0, -2.5],
							"lerp_mode": "catmullrom"
						},
						"1.3333": {
							"post": [0, 0, 0],
							"lerp_mode": "catmullrom"
						}
					}
				}
			},
			"sound_effects": {
				"0.0": {
					"effect": "pokemon.conkeldurr.cry"
				}
			}
		},
		"animation.conkeldurr.sleep": {
			"loop": true,
			"animation_length": 8,
			"bones": {
				"torso": {
					"rotation": ["-12.5+0.3*math.sin(q.anim_time*90*1-90)", 0, 0],
					"position": [0, -3, 0]
				},
				"waist": {
					"rotation": [12.5, 0, 0]
				},
				"chest": {
					"rotation": [25, 0, 0]
				},
				"shoulder_left": {
					"rotation": [0, 5, 0]
				},
				"arm_left": {
					"rotation": [-85, 0, 0]
				},
				"arm_left_rotation": {
					"rotation": [-7.5, 0, 32.5]
				},
				"arm_left2": {
					"rotation": [-0.97708, "2.4362+1*math.sin(q.anim_time*90*1-90)", 30.02191]
				},
				"wrist_left": {
					"rotation": [0, "-1*math.sin(q.anim_time*90*1-90)", 17.5]
				},
				"hand_left": {
					"rotation": [0, 0, 50]
				},
				"finger_back_left": {
					"rotation": [3.76867, -1.29027, -46.41799],
					"position": [-1, 0, 0]
				},
				"finger_back_left2": {
					"rotation": [0, 0, -25]
				},
				"finger_middle_left": {
					"rotation": [0, 0, -27.5],
					"position": [-1.3, -0.1, 0]
				},
				"finger_middle_left2": {
					"rotation": [0, 0, -2.5]
				},
				"thumb_left": {
					"rotation": [-83.93514, 19.4077, -392.58544],
					"position": [0, 0.75, 0]
				},
				"thumb_left2": {
					"rotation": [0, -35, 0]
				},
				"shoulder_right": {
					"rotation": [0, -5, 0]
				},
				"arm_right": {
					"rotation": [-85, 0, 0]
				},
				"arm_right_rotation": {
					"rotation": [-7.5, 0, -32.5]
				},
				"arm_right2": {
					"rotation": [-0.97708, "-2.4362-1*math.sin(q.anim_time*90*1-90)", -30.02191]
				},
				"wrist_right": {
					"rotation": [0, 0, -17.5]
				},
				"hand_right": {
					"rotation": [0, "1*math.sin(q.anim_time*90*1-90)", -50]
				},
				"finger_back_right": {
					"rotation": [3.76867, 1.29027, 46.41799],
					"position": [1, 0, 0]
				},
				"finger_back_right2": {
					"rotation": [0, 0, 25]
				},
				"finger_middle_right": {
					"rotation": [0, 0, 27.5],
					"position": [1.3, -0.1, 0]
				},
				"finger_middle_right2": {
					"rotation": [0, 0, 2.5]
				},
				"thumb_right": {
					"rotation": [-83.93514, -19.4077, 392.58544],
					"position": [0, 0.75, 0]
				},
				"thumb_right2": {
					"rotation": [0, 35, 0]
				},
				"head": {
					"rotation": ["9.911-1*math.sin(q.anim_time*90*1-40)", 1.38132, "-7.3724+0.3*math.sin(q.anim_time*90*2-40)"]
				},
				"eyelid_left": {
					"position": [0, 0, -0.1]
				},
				"eyelid_right": {
					"position": [0, 0, -0.1]
				},
				"hair": {
					"rotation": [22.5, 0, 0]
				},
				"hair2": {
					"rotation": [-5, 0, 0]
				},
				"leg_left": {
					"rotation": [-74.64048, -17.34551, -2.35666],
					"position": [0, -3.5, -1.5]
				},
				"leg_left2": {
					"rotation": [7.5, 0, 0]
				},
				"foot_left": {
					"rotation": [19.20698, 23.14969, 48.37505],
					"position": [-0.62593, -0.29455, 0.35351]
				},
				"leg_right": {
					"rotation": [-74.64048, 17.34551, 2.35666],
					"position": [0, -3.5, -1.5]
				},
				"leg_right2": {
					"rotation": [7.5, 0, 0]
				},
				"foot_right": {
					"rotation": [19.20698, -23.14969, -48.37505],
					"position": [0.62593, -0.29455, 0.35351]
				},
				"pillar_disconnected_left": {
					"rotation": [-3.29767, 14.6123, -3.9999],
					"position": [-27, 11.25, -12]
				},
				"pillar_disconnected_right": {
					"rotation": [-3.29767, -14.6123, 3.9999],
					"position": [27, 11.25, -12]
				}
			}
		},
		"animation.conkeldurr.walkspeedtest": {
			"loop": true,
			"bones": {
				"conkeldurr": {
					"position": [0, 0, "-q.anim_time*90*0.16"]
				}
			}
		},
		"animation.conkeldurr.testpillarless": {
			"loop": true,
			"animation_length": 4,
			"bones": {
				"waist": {
					"rotation": [5, 0, 0]
				},
				"chest": {
					"rotation": ["5-2*math.sin(q.anim_time*90*1-90)", 0, 0]
				},
				"arm_left": {
					"rotation": [80.69367, -5.68422, -13.9042],
					"position": [0, 0, -0.1]
				},
				"arm_left_rotation": {
					"rotation": ["-8.7735+2*math.sin(q.anim_time*90*1-90)", 29.67338, -4.60582],
					"position": [0, "-0.3+0.2*math.sin(q.anim_time*90*1)", 0]
				},
				"arm_left2": {
					"rotation": [-1.97979, 39.31836, -0.25724]
				},
				"wrist_left": {
					"rotation": [-7.07765, 23.9231, -2.36666]
				},
				"hand_left": {
					"rotation": ["-2.3064-1*math.sin(q.anim_time*90*1-90)", 2.70851, "20.6943+1*math.sin(q.anim_time*90*1-90)"]
				},
				"finger_back_left2": {
					"rotation": [0, 0, -27.5]
				},
				"finger_middle_left": {
					"rotation": [9.47978, 3.14783, 75.82345],
					"position": [-0.2, 0, 0]
				},
				"finger_middle_left2": {
					"rotation": [0, 0, -22.5]
				},
				"thumb_left": {
					"rotation": [9.63815, 2.35674, 89.5743],
					"position": [0.96755, 1.32986, -0.12401]
				},
				"thumb_left2": {
					"rotation": [0, -54.8742, 0]
				},
				"leg_left": {
					"rotation": [0, -5, -15],
					"position": [0, 0, -1]
				},
				"foot_left": {
					"rotation": [0.67276, -20.13853, 5.32142]
				},
				"leg_right": {
					"rotation": [0, 5, 15],
					"position": [0, 0, -1]
				},
				"foot_right": {
					"rotation": [0.67276, 20.13853, -5.32142]
				},
				"pillar_connected_left": {
					"rotation": [-0.08508, -0.64686, 14.98637],
					"position": [-0.27434, 9.83489, -0.09301]
				},
				"arm_right": {
					"rotation": [80.69367, 5.68422, 13.9042],
					"position": [0, 0, -0.1]
				},
				"arm_right_rotation": {
					"rotation": ["-8.7735+2*math.sin(q.anim_time*90*1-90)", -29.67338, 4.60582],
					"position": [0, "-0.3+0.2*math.sin(q.anim_time*90*1)", 0]
				},
				"arm_right2": {
					"rotation": [-1.97979, -39.31836, 0.25724]
				},
				"wrist_right": {
					"rotation": [-7.07765, -23.9231, 2.36666]
				},
				"hand_right": {
					"rotation": ["-2.3064-1*math.sin(q.anim_time*90*1-90)", -2.70851, "-20.6943+1*math.sin(q.anim_time*90*1-90)"]
				},
				"finger_back_right": {
					"rotation": [-7.21149, 2.4171, -82.11457],
					"position": [0.1, 0, 0]
				},
				"finger_back_right2": {
					"rotation": [0, 0, 27.5]
				},
				"finger_middle_right": {
					"rotation": [9.47978, -3.14783, -75.82345],
					"position": [0.2, 0, 0]
				},
				"finger_middle_right2": {
					"rotation": [0, 0, 22.5]
				},
				"thumb_right": {
					"rotation": [9.63815, -2.35674, -89.5743],
					"position": [-0.96755, 1.32986, -0.12401]
				},
				"thumb_right2": {
					"rotation": [0, 54.8742, 0]
				},
				"pillar_connected_right": {
					"rotation": [-0.08508, 0.64686, -14.98637],
					"position": [0.27434, 9.83489, -0.09301]
				},
				"head": {
					"rotation": ["2.5+3*math.sin(q.anim_time*90*1-50)", 0, 0]
				},
				"hair": {
					"rotation": [-10, 0, 0]
				},
				"hair2": {
					"rotation": [-20, 0, 0]
				},
				"body": {
					"position": [0, -0.25, 4]
				},
				"leg_left2": {
					"rotation": [0, 0, 10]
				},
				"leg_right2": {
					"rotation": [0, 0, -10]
				},
				"torso": {
					"rotation": ["1*math.sin(q.anim_time*90*1-50)", 0, 0],
					"position": [0, "0.1*math.sin(q.anim_time*90*1)", 0]
				},
				"finger_back_left": {
					"rotation": [-7.21149, -2.4171, 82.11457],
					"position": [-0.1, 0, 0]
				},
				"shoulder_right": {
					"rotation": [0, -5, -12.5],
					"position": [1.25, 0, 0]
				},
				"mouth_closed": {
					"position": [0, 0, 0.1]
				},
				"mouth_frown": {
					"position": [0, 0, -0.1]
				},
				"shoulder_left": {
					"rotation": [0, 5, 12.5],
					"position": [-1.25, 0, 0]
				}
			}
		},
		"animation.conkeldurr.testidle": {
			"loop": true,
			"animation_length": 4,
			"bones": {
				"waist": {
					"rotation": [12.5, 0, 0]
				},
				"chest": {
					"rotation": ["5-2*math.sin(q.anim_time*90*1-90)", 0, 0]
				},
				"arm_left": {
					"rotation": [0, 0, 0]
				},
				"arm_left_rotation": {
					"rotation": ["-7.0051+2*math.sin(q.anim_time*90*1-90)", 2.51755, 15.56793],
					"position": [0, "-0.3+0.3*math.sin(q.anim_time*90*1)", 0]
				},
				"arm_left2": {
					"rotation": [1.03793, 4.47877, 33.48013]
				},
				"wrist_left": {
					"rotation": [3.38814, -1.91723, 13.2729]
				},
				"hand_left": {
					"rotation": ["-0.5154-1*math.sin(q.anim_time*90*1-90)", 2.96763, "55.7376-1*math.sin(q.anim_time*90*1-90)"]
				},
				"finger_back_left2": {
					"rotation": [0, 0, -40]
				},
				"finger_middle_left": {
					"rotation": [-0.16985, 9.98278, 3.04754],
					"position": [-0.2, 0, 0]
				},
				"finger_middle_left2": {
					"rotation": [0, 0, -32.5]
				},
				"thumb_left": {
					"rotation": [187.12635, 42.23252, 270.52659],
					"position": [0.96755, 1.32986, -0.12401]
				},
				"thumb_left2": {
					"rotation": [0, -2.3742, 0]
				},
				"leg_left": {
					"rotation": [0, -5, -15],
					"position": [0, 0, -1]
				},
				"foot_left": {
					"rotation": [0.67276, -20.13853, 5.32142]
				},
				"leg_right": {
					"rotation": [0, 5, 15],
					"position": [0, 0, -1]
				},
				"foot_right": {
					"rotation": [0.67276, 20.13853, -5.32142]
				},
				"pillar_connected_left": {
					"rotation": [92.41492, -0.64686, 14.98637],
					"position": [-0.27434, 3.83489, -15.84301]
				},
				"arm_right": {
					"rotation": [0, 0, 0]
				},
				"arm_right_rotation": {
					"rotation": ["-7.0051+2*math.sin(q.anim_time*90*1-90)", -2.51755, -15.56793],
					"position": [0, "-0.3+0.3*math.sin(q.anim_time*90*1)", 0]
				},
				"arm_right2": {
					"rotation": [1.03793, -4.47877, -33.48013]
				},
				"wrist_right": {
					"rotation": [3.38814, 1.91723, -13.2729]
				},
				"hand_right": {
					"rotation": ["-0.5154-1*math.sin(q.anim_time*90*1-90)", -2.96763, "-55.7376-1*math.sin(q.anim_time*90*1-90)"]
				},
				"finger_back_right": {
					"rotation": [1.14172, 7.51805, -1.88721],
					"position": [0.1, 0, 0]
				},
				"finger_back_right2": {
					"rotation": [0, 0, 40]
				},
				"finger_middle_right": {
					"rotation": [-0.16985, -9.98278, -3.04754],
					"position": [0.2, 0, 0]
				},
				"finger_middle_right2": {
					"rotation": [0, 0, 32.5]
				},
				"thumb_right": {
					"rotation": [187.12635, -42.23252, -270.52659],
					"position": [-0.96755, 1.32986, -0.12401]
				},
				"thumb_right2": {
					"rotation": [0, 2.3742, 0]
				},
				"pillar_connected_right": {
					"rotation": [92.41492, 0.64686, -14.98637],
					"position": [0.27434, 3.83489, -15.84301]
				},
				"head": {
					"rotation": ["-12.5+3*math.sin(q.anim_time*90*1-50)", 0, 0]
				},
				"hair": {
					"rotation": [-10, 0, 0]
				},
				"hair2": {
					"rotation": [-10, 0, 0]
				},
				"body": {
					"position": [0, -0.25, 4]
				},
				"leg_left2": {
					"rotation": [0, 0, 10]
				},
				"leg_right2": {
					"rotation": [0, 0, -10]
				},
				"torso": {
					"rotation": ["1*math.sin(q.anim_time*90*1-50)", 0, 0],
					"position": [0, "0.1*math.sin(q.anim_time*90*1)", 0]
				},
				"finger_back_left": {
					"rotation": [1.14172, -7.51805, 1.88721],
					"position": [-0.1, 0, 0]
				}
			}
		},
		"animation.conkeldurr.conkeldemon": {
			"loop": true,
			"bones": {
				"waist": {
					"rotation": [67.5, 0, 0]
				},
				"chest": {
					"rotation": [-67.5, 0, 0],
					"position": [0, -9, -3]
				},
				"shoulder_left": {
					"position": [0, 3, 0]
				},
				"arm_left_rotation": {
					"rotation": [90, 0, 90],
					"position": [21, -0.5, -31.75]
				},
				"hand_left": {
					"rotation": [0, 0, 20]
				},
				"finger_back_left": {
					"rotation": [0, 0, 67.5]
				},
				"finger_middle_left": {
					"rotation": [0, 0, 70]
				},
				"thumb_left": {
					"rotation": [0, 0, 37.5]
				},
				"thumb_left2": {
					"rotation": [-11.29087, -55.03363, -8.55357]
				},
				"pillar_connected_left": {
					"rotation": [-27.5, 0, -20],
					"position": [-18, 2, 0]
				},
				"shoulder_right": {
					"position": [0, 3, 0]
				},
				"arm_right_rotation": {
					"rotation": [90, 0, -90],
					"position": [-21, -0.5, -31.75]
				},
				"hand_right": {
					"rotation": [0, 0, -20]
				},
				"finger_back_right": {
					"rotation": [0, 0, -67.5]
				},
				"finger_middle_right": {
					"rotation": [0, 0, -70]
				},
				"thumb_right": {
					"rotation": [0, 0, -37.5]
				},
				"thumb_right2": {
					"rotation": [-11.29087, 55.03363, 8.55357]
				},
				"pillar_connected_right": {
					"rotation": [-27.5, 0, 20],
					"position": [18, 2, 0]
				},
				"head": {
					"position": [0, 7, 12]
				},
				"eyes": {
					"position": [0, -8, -4]
				},
				"eye_left": {
					"position": [3, -2, 0]
				},
				"eye_right": {
					"position": [-3, -2, 0]
				},
				"mouth_closed": {
					"position": [0, -12, -4.1],
					"scale": [1.625, 1.6, 1]
				},
				"nose": {
					"position": [0, -9, -1]
				},
				"beard": {
					"position": [0, -14, -4],
					"scale": [2.4, 2, 1]
				},
				"hair": {
					"rotation": [87.5, 0, -180],
					"position": [0, -4, 0]
				},
				"leg_left": {
					"rotation": [0, -90, 0]
				},
				"foot_left": {
					"scale": [1, 1, 2.9]
				},
				"leg_right": {
					"rotation": [0, 90, 0]
				},
				"foot_right": {
					"scale": [1, 1, 2.9]
				}
			}
		},
		"animation.conkeldurr.faint_WIP": {
			"animation_length": 3,
			"bones": {
				"waist": {
					"rotation": {
						"0.0": [12.5, 0, 0],
						"1.25": [25, 0, 0],
						"2.0833": [2.5, 0, 0]
					}
				},
				"chest": {
					"rotation": {
						"0.0": [7, 0, 0],
						"1.0833": [19.5, 0, 0],
						"1.7917": [-5.5, 0, 0]
					}
				},
				"arm_left": {
					"rotation": [-15, 0, 0],
					"position": [0, 0.1, -0.1]
				},
				"arm_left_rotation": {
					"rotation": {
						"0.0": [-9.11, 22.29711, -3.09472],
						"1.0": [-0.94968, 39.5359, -6.63407],
						"1.5833": [-0.94968, 39.5359, -6.63407],
						"2.0833": [11.76713, 2.03959, -6.0556]
					},
					"position": {
						"0.0": [0, -0.3, 0],
						"1.0": [0, -0.3, -0.8],
						"1.5833": [0, -0.3, -0.8],
						"2.0833": [0, 0.8, -0.8]
					}
				},
				"arm_left2": {
					"rotation": {
						"0.0": [-2.05515, 41.81681, -0.37309],
						"1.0": [-2.47752, 51.8091, -0.95017],
						"1.5833": [-2.47752, 51.8091, -0.95017],
						"2.0833": [-1.53591, 4.33358, 0.88142]
					}
				},
				"wrist_left": {
					"rotation": {
						"0.0": [3.03642, 16.80984, -8.2641],
						"1.0": [-86.6669, 29.29073, -7.51089],
						"1.5833": [-86.6669, 29.29073, -7.51089],
						"2.0833": [-86.89389, -20.64006, -10.23881]
					}
				},
				"hand_left": {
					"rotation": {
						"0.0": [-2.2436, 2.00248, -0.8141],
						"1.0": [-1.18698, 2.76293, 24.19649],
						"1.5833": [-1.18698, 2.76293, 24.19649]
					}
				},
				"finger_back_left2": {
					"rotation": {
						"0.0": [0, 0, -25],
						"1.25": [0, 0, -37.5]
					}
				},
				"finger_middle_left": {
					"rotation": [-0.60957, 9.96578, 0.50923],
					"position": [-0.2, 0, 0]
				},
				"finger_middle_left2": {
					"rotation": {
						"0.0": [0, 0, -22.5],
						"1.25": [0, 0, -62.5]
					}
				},
				"thumb_left": {
					"rotation": {
						"0.0": [43.49988, 37.57167, 125.81223],
						"1.25": [20.58813, 18.15012, 55.46478]
					},
					"position": [0.96755, 1.32986, -0.12401]
				},
				"thumb_left2": {
					"rotation": [0, -54.8742, 0]
				},
				"leg_left": {
					"rotation": [0, -5, -15],
					"position": [0, 0, -1]
				},
				"foot_left": {
					"rotation": [0.67276, -20.13853, 5.32142]
				},
				"leg_right": {
					"rotation": [0, 5, 15],
					"position": [0, 0, -1]
				},
				"foot_right": {
					"rotation": [0.67276, 20.13853, -5.32142]
				},
				"pillar_connected_left": {
					"rotation": [-0.08508, -0.64686, 14.98637],
					"position": [-0.27434, 9.83489, -0.09301]
				},
				"arm_right": {
					"rotation": {
						"0.0": [-15, 0, 0],
						"1.25": [80.69367, 5.68422, 13.9042],
						"2.0833": [-91.80633, 5.68422, 13.9042]
					},
					"position": {
						"0.0": [0, 0.1, -0.1],
						"1.25": [0, 0, -0.1]
					}
				},
				"arm_right_rotation": {
					"rotation": {
						"0.0": [-10.11, -22.29711, 3.09472],
						"1.25": [-8.72844, -37.0939, 5.91211],
						"2.0833": [-7.90686, 9.35796, -5.64057]
					},
					"position": {
						"0.0": [0, -0.3, 0],
						"1.25": [0, -0.11522, 1],
						"2.0833": [1.75, -0.12, 1]
					}
				},
				"arm_right2": {
					"rotation": {
						"0.0": [-2.05515, -41.81681, 0.37309],
						"0.4167": [-1.62301, -19.32795, -0.46021],
						"1.25": [-1.97979, -39.31836, 0.25724],
						"2.0833": [-1.60006, -16.82894, -0.53416]
					}
				},
				"wrist_right": {
					"rotation": {
						"0.0": [3.03642, -16.80984, 8.2641],
						"1.25": [-7.07765, -23.9231, 2.36666]
					}
				},
				"hand_right": {
					"rotation": {
						"0.0": [-2.2436, -2.00248, 0.8141],
						"1.25": ["-2.3064-1*math.sin(q.anim_time*90*1-90)", -2.70851, "-20.6943+1*math.sin(q.anim_time*90*1-90)"]
					}
				},
				"finger_back_right": {
					"rotation": {
						"0.0": [1.14172, 7.51805, -1.88721],
						"1.25": [-7.21149, 2.4171, -82.11457]
					},
					"position": {
						"0.0": [0.1, 0, 0],
						"1.25": [0.1, 0, 0]
					}
				},
				"finger_back_right2": {
					"rotation": {
						"0.0": [0, 0, 25],
						"1.25": [0, 0, 27.5]
					}
				},
				"finger_middle_right": {
					"rotation": {
						"0.0": [-0.60957, -9.96578, -0.50923],
						"1.25": [9.47978, -3.14783, -75.82345]
					},
					"position": {
						"0.0": [0.2, 0, 0],
						"1.25": [0.2, 0, 0]
					}
				},
				"finger_middle_right2": {
					"rotation": {
						"0.0": [0, 0, 22.5],
						"1.25": [0, 0, 22.5]
					}
				},
				"thumb_right": {
					"rotation": {
						"0.0": [43.49988, -37.57167, -125.81223],
						"1.25": [9.63815, -2.35674, -89.5743]
					},
					"position": {
						"0.0": [-0.96755, 1.32986, -0.12401],
						"1.25": [-0.96755, 1.32986, -0.12401]
					}
				},
				"thumb_right2": {
					"rotation": {
						"0.0": [0, 54.8742, 0],
						"1.25": [0, 54.8742, 0]
					}
				},
				"pillar_connected_right": {
					"rotation": [-0.08508, 0.64686, -14.98637],
					"position": [0.27434, 9.83489, -0.09301]
				},
				"head": {
					"rotation": {
						"0.0": {
							"post": [-14.79813, 0, 0],
							"lerp_mode": "catmullrom"
						},
						"0.2917": {
							"post": [-2.534, -7.25034, 0.82264],
							"lerp_mode": "catmullrom"
						},
						"0.7083": {
							"post": [-3.58484, 4.17532, 0.8025],
							"lerp_mode": "catmullrom"
						},
						"1.25": {
							"post": [-5.01618, -9.66508, 2.57865],
							"lerp_mode": "catmullrom"
						},
						"2.0833": [-17.83856, -22.11453, 3.74915]
					},
					"position": {
						"0.0": [0, -0.1, -1],
						"1.625": [0, -0.1, -1],
						"2.0833": [0, 0.5, 0]
					}
				},
				"hair": {
					"rotation": [-10, 0, 0]
				},
				"hair2": {
					"rotation": [-10, 0, 0]
				},
				"body": {
					"rotation": {
						"0.0": [0, 0, 0],
						"1.625": [0, 0, 0],
						"2.0833": [-92.5, 0, 0]
					},
					"position": {
						"0.0": [0, -0.25, 4],
						"1.625": [0, -0.25, 4],
						"2.0833": [0, -15.5, 18.5]
					}
				},
				"leg_left2": {
					"rotation": [0, 0, 10]
				},
				"leg_right2": {
					"rotation": [0, 0, -10]
				},
				"torso": {
					"rotation": {
						"0.0": {
							"post": [-0.76604, 0, 0],
							"lerp_mode": "catmullrom"
						},
						"0.25": {
							"post": [1.73165, 2.49886, 0.07552],
							"lerp_mode": "catmullrom"
						},
						"0.5417": {
							"post": [1.73165, -2.49886, -0.07552],
							"lerp_mode": "catmullrom"
						},
						"1.0833": {
							"post": [-3.27, 0, 0],
							"lerp_mode": "catmullrom"
						},
						"1.5": {
							"post": [-18.27, 0, 0],
							"lerp_mode": "catmullrom"
						},
						"1.75": {
							"post": [-0.77, 0, 0],
							"lerp_mode": "catmullrom"
						},
						"2.0833": [4.23, 0, 0]
					},
					"position": [0, 0, 0]
				},
				"finger_back_left": {
					"rotation": {
						"0.0": [1.14172, -7.51805, 1.88721],
						"1.25": [-0.52212, -7.58591, 14.49684]
					},
					"position": [-0.1, 0, 0]
				},
				"fbody": {
					"position": [0, -0.25, 4]
				},
				"ftorso": {
					"rotation": [-0.76604, 0, 0],
					"position": [0, 0, 0]
				},
				"fwaist": {
					"rotation": [12.5, 0, 0]
				},
				"fchest": {
					"rotation": [7, 0, 0]
				},
				"farm_left": {
					"rotation": [-15, 0, 0]
				},
				"farm_left_rotation": {
					"rotation": [-9.11, 22.29711, -3.09472],
					"position": [0, -0.3, 0]
				},
				"farm_left2": {
					"rotation": [-2.05515, 41.81681, -0.37309]
				},
				"fwrist_left": {
					"rotation": [3.03642, 16.80984, -8.2641]
				},
				"fhand_left": {
					"rotation": [-2.2436, 2.00248, -0.8141]
				},
				"pillar_disconnected_left": {
					"rotation": [-0.08508, -0.64686, 14.98637],
					"position": [-0.27434, 9.83489, -0.09301]
				},
				"farm_right": {
					"rotation": [-15, 0, 0]
				},
				"farm_right_rotation": {
					"rotation": [-10.11, -22.29711, 3.09472],
					"position": [0, -0.3, 0]
				},
				"farm_right2": {
					"rotation": [-2.05515, -41.81681, 0.37309]
				},
				"fwrist_right": {
					"rotation": [3.03642, -16.80984, 8.2641]
				},
				"fhand_right": {
					"rotation": [-2.2436, -2.00248, 0.8141]
				},
				"pillar_disconnected_right": {
					"rotation": [-0.08508, 0.64686, -14.98637],
					"position": [0.27434, 9.83489, -0.09301]
				},
				"shoulder_left": {
					"rotation": {
						"0.0": [0, 0, 0],
						"0.8333": [0, 12.5, 0],
						"1.5417": [0, 12.5, 0],
						"2.0833": [0, -5, 0]
					}
				},
				"shoulder_right": {
					"rotation": {
						"0.0": [0, 0, 0],
						"0.8333": [0, -12.5, 0],
						"1.5417": [0, -12.5, 0],
						"2.0833": [0, 5, 0]
					}
				},
				"eyelid_left": {
					"position": {
						"0.0417": [0, 0, 0],
						"0.0833": [0, 0, -0.1],
						"0.3333": [0, 0, -0.1],
						"0.375": [0, 0, 0],
						"0.5417": [0, 0, 0],
						"0.5833": [0, 0, -0.1],
						"0.75": [0, 0, -0.1],
						"0.7917": [0, 0, 0],
						"1.0833": [0, 0, 0],
						"1.125": [0, 0, -0.1]
					}
				},
				"eyelid_right": {
					"position": {
						"0.0417": [0, 0, 0],
						"0.0833": [0, 0, -0.1],
						"0.3333": [0, 0, -0.1],
						"0.375": [0, 0, 0],
						"0.5417": [0, 0, 0],
						"0.5833": [0, 0, -0.1],
						"0.75": [0, 0, -0.1],
						"0.7917": [0, 0, 0],
						"1.0833": [0, 0, 0],
						"1.125": [0, 0, -0.1]
					}
				},
				"mouth_closed": {
					"position": {
						"0.0417": [0, 0, 0],
						"0.0833": {"pre": [0, 0, 0], "post": [0, 0, 0.1]}
					}
				},
				"mouth_frown": {
					"position": {
						"0.0417": [0, 0, 0],
						"0.0833": {"pre": [0, 0, 0], "post": [0, 0, -0.1]}
					}
				}
			}
		}
	}
}